<?xml version="1.0" encoding="UTF-8"?>
<!DOCTYPE svg PUBLIC "-//W3C//DTD SVG 1.1//EN" "http://www.w3.org/Graphics/SVG/1.1/DTD/svg11.dtd">
<!-- Creator: CorelDRAW 2020 (64 Bit) -->
<svg xmlns="http://www.w3.org/2000/svg" xml:space="preserve" width="300mm" height="300mm" version="1.1" style="shape-rendering:geometricPrecision; text-rendering:geometricPrecision; image-rendering:optimizeQuality; fill-rule:evenodd; clip-rule:evenodd"
viewBox="0 0 30000 30000"
 xmlns:xlink="http://www.w3.org/1999/xlink"
 xmlns:xodm="http://www.corel.com/coreldraw/odm/2003">
 <defs>
  <style type="text/css">
   <![CDATA[
    .fil1 {fill:black}
    .fil2 {fill:#F2C641}
    .fil4 {fill:#FFF200}
    .fil0 {fill:white}
    .fil3 {fill:#F2C641;fill-rule:nonzero}
   ]]>
  </style>
 </defs>
 <g id="Camada_x0020_1">
  <metadata id="CorelCorpID_0Corel-Layer"/>
  <rect class="fil0" width="30000" height="30000"/>
  <path class="fil1" d="M14997.07 5416.82c4742.25,0 8679.59,3443.74 9449.23,7966.72l1518.5 736.92c322.96,156.73 587.72,444.05 677.98,795.88l299.79 1168.46c66.76,260.23 106.29,568.7 51.94,833.81 -48.91,238.65 -119.84,449.86 -206.86,676.51l-424.9 1106.72c-32.97,85.9 -45.14,218.41 -39.99,310.15 13.06,233.48 -22.77,455.91 -149.57,655.96 -138.61,218.64 -359.29,366.59 -578.47,495.16l-1833.22 1075.32c-562.82,330.16 -925.19,421.51 -1547.89,170.58 -21.03,-8.48 -42.01,-17.04 -62.98,-25.68 -1755.55,1966.9 -4309.7,3205.71 -7153.56,3205.71 -2843.85,0 -5397.99,-1238.8 -7153.54,-3205.7 -20.96,8.63 -41.94,17.2 -62.96,25.67 -622.7,250.93 -985.07,159.58 -1547.89,-170.58l-1833.22 -1075.32c-219.18,-128.57 -439.86,-276.52 -578.47,-495.16 -126.8,-200.05 -162.63,-422.48 -149.57,-655.96 5.15,-91.74 -7.02,-224.25 -39.99,-310.15l-424.9 -1106.72c-87.02,-226.65 -157.95,-437.86 -206.86,-676.51 -54.35,-265.11 -14.82,-573.58 51.94,-833.81l299.79 -1168.46c90.26,-351.83 355.02,-639.15 677.98,-795.88l1518.45 -736.89c769.63,-4522.99 4706.98,-7966.75 9449.24,-7966.75z"/>
  <g id="_2853990928128">
   <g>
    <path class="fil2" d="M13457.17 12568.5c130.22,73.01 266.31,136.84 407.44,190.44 15.81,6.01 25.12,49.16 -0.53,39.63 -141.45,-53.02 -277.99,-116.17 -408.74,-188.42 -24.64,-13.62 -30.25,-59.63 1.83,-41.65z"/>
    <path class="fil2" d="M16427.17 12568.5c-130.22,73.01 -266.31,136.84 -407.44,190.44 -15.81,6.01 -25.12,49.16 0.53,39.63 141.45,-53.02 277.99,-116.17 408.74,-188.42 24.64,-13.62 30.25,-59.63 -1.83,-41.65z"/>
   </g>
   <g>
    <path class="fil3" d="M11785.23 9211.8l-13.23 -27.63c0.03,0.01 -17.6,-34.88 -36.6,-77.56 -19.05,-42.37 -39.35,-92.95 -47.79,-120.59 -6.16,-19.61 -7.99,-47.45 -7.7,-75.47l14.02 -45.06c48.97,-153.87 108.85,-304.3 179.19,-449.62 70.28,-145.31 151.1,-285.52 241.29,-418.99 45.12,-66.77 92.69,-131.86 142.34,-195.08 23.64,-32.61 47.71,-64.91 72.42,-96.79 24.65,-31.89 49.68,-63.56 75.21,-94.74 -28.7,28.15 -56.69,57.23 -84.06,86.8 -27.52,29.64 -54.29,59.91 -80.64,90.74 -50.02,63.62 -97.85,129.11 -143.25,196.39 -90.85,134.36 -172.2,275.53 -243.05,421.9 -70.8,146.34 -131.14,297.85 -180.43,452.79 -12.27,38.73 -23.98,77.61 -34.78,116.79 -5.61,19.57 -10.7,39.17 -15.95,58.76l-7.57 29.51c-2.76,9.82 -5.25,19.64 -7.38,29.59l-1.01 5.32c-13.91,57.93 -26.43,116.21 -37.29,174.71 -16.91,89.26 -8.45,196.44 15.13,236.09 0.01,-0.04 24.85,42.93 54.39,89.49 29.44,46.76 63.65,96.7 77.68,116.73 13.88,20.14 24.66,60.11 32.59,94.98 7.74,34.8 12.86,64.34 12.77,64.32 0.87,-147.34 12.45,-294.76 34.15,-440.82 11.95,-82.6 8.73,-181.92 -10.45,-222.56z"/>
    <path class="fil3" d="M11711.23 9861.23l-18.64 -24.21c0.1,-0.05 -24.35,-30.23 -51.56,-67.76 -27.26,-37.33 -57.46,-82.39 -71.32,-107.56 -14.13,-25.05 -23.02,-68.18 -28.06,-105.12 -4.86,-36.96 -5.81,-67.68 -5.78,-67.67 -19.43,158.77 -27.64,319.06 -24.33,478.95 1.49,90.9 31.87,193.78 63.23,227.32 0,0 33.35,36.52 71.95,75.49 38.39,39.22 82.52,80.39 100.34,96.76 17.97,16.55 36.58,53.28 51.76,85.36 15,32.01 25.97,59.86 26.07,59.85 -29.9,-143.66 -49.3,-289.84 -58.05,-436.71 -2.48,-41.63 -9.84,-86.31 -19.73,-125.14 -9.74,-38.85 -22.34,-71.92 -35.88,-89.56z"/>
    <path class="fil3" d="M11772.55 10510.16l-23.29 -19.51c0,0 -30.2,-24.16 -64.75,-54.74 -34.64,-30.48 -73.29,-67.68 -92.3,-89.22 -18.97,-21.39 -36.92,-61.46 -49.29,-96.49 -12.48,-34.98 -19.78,-64.76 -19.73,-64.75 13.8,159.26 39.18,317.34 75.94,472.5 10.45,44 28.29,89.63 48.47,127.21 20.25,37.59 42.56,67.16 61.39,80.19 0,0 40.25,28.18 86.43,57.53 45.99,29.62 97.63,59.84 118.69,71.82 20.88,12.26 47.28,43.57 68.74,71.51 21.4,27.91 38.07,52.55 38.07,52.55 -59.55,-133.19 -109.4,-270.93 -148.85,-411.97 -22.51,-79.66 -65.46,-168.04 -99.52,-196.63z"/>
    <path class="fil3" d="M11969.11 11127.81l-26.8 -13.81c0,0 -34.74,-16.75 -75.12,-38.87 -40.21,-21.95 -86.25,-49.52 -109.18,-66.28 -23.16,-16.59 -49.03,-51.64 -68.67,-83.02 -19.61,-31.25 -32.94,-58.63 -33.02,-58.65 47.04,151.97 105.28,300.17 173.87,442.67 38.73,81.34 108.68,160.76 150.99,177.39 0,0 45.4,18.47 96.58,37.04 51.3,18.65 108.34,36.79 131.37,43.89 23.14,7.2 55.29,32.1 82.16,54.6 26.68,22.63 48.27,42.78 48.16,42.87 -85.83,-116.66 -163.29,-239.95 -231.46,-368.53 -38.85,-72.49 -99.43,-148.95 -138.88,-169.3z"/>
    <path class="fil3" d="M12290.57 11685.68l-29.32 -7.52c0.19,-0.12 -37.42,-8.78 -81.45,-21.6 -44.06,-12.56 -94.66,-29.31 -120.74,-40.59 -26.2,-10.98 -58.78,-39.34 -84.51,-65.54 -25.75,-26.13 -44.55,-49.74 -44.55,-49.74 77.79,137.34 165.23,268.35 261.66,392.35 54.6,70.75 139.61,132.96 184.58,139.97 0,0 48.37,8.34 102.39,15.28 54.1,7.16 114,12.39 138.04,14.33 24.18,1.99 60.8,19.39 91.86,35.42 30.92,16.11 56.18,31.12 56.18,31.12 -108.45,-94.84 -209.8,-198.11 -303.08,-308.7 -26.51,-31.21 -58.62,-61.88 -89.44,-86.42 -30.62,-24.49 -60.3,-42.76 -81.62,-48.36z"/>
    <path class="fil3" d="M12720.95 12159.4l-30.27 -0.97c0,0 -38.62,-0.39 -84.49,-3.27 -45.91,-2.6 -99.08,-8.1 -127.03,-13.39 -27.79,-5.19 -65.98,-25.58 -96.46,-45.63 -30.6,-19.87 -53.99,-38.77 -53.99,-38.77 104.61,116.91 217.91,226 338.63,325.62 34.07,28.2 75.35,53.21 113.67,70.41 38.48,17.13 73.9,26.8 96.74,25.34 0,0 49.13,-2.52 103.68,-7.76 54.62,-5.08 114.13,-12.9 138.25,-16.58 23.98,-3.28 63.7,5.25 97.45,14.1 33.77,8.8 61.71,17.86 61.71,17.86 -126.25,-68.26 -247.43,-146.29 -362.09,-233.19 -65.06,-48.79 -151.52,-92.18 -195.8,-93.77z"/>
    <path class="fil3" d="M12004.76 9686.93c-17.35,19.81 -52.1,56.33 -82.27,89.2 -30.11,32.6 -55.26,61.32 -55.33,61.3l-19.24 23.04c-14.21,16.95 -26.74,49.32 -35.35,87.96 -8.46,38.61 -12.47,83.53 -9.99,124.63 8.59,145.14 27.79,289.48 57.25,431.32 0,0 -1.06,-29.76 1.46,-64.88 2.31,-35.14 8.7,-75.32 20.85,-96.26 12.04,-21.06 42.43,-71.94 71.44,-115.83 28.8,-43.98 55.59,-81.38 55.5,-81.4 24.41,-35.1 40.67,-124.02 39.45,-199.13 -2.73,-132.84 4.14,-266.23 20.28,-398.67 -0.07,-0.02 -7.76,24.47 -19.63,54.18 -11.64,29.64 -27.37,64.52 -44.42,84.54z"/>
    <path class="fil3" d="M12024.09 10276.18c-12.69,22.96 -39.59,66.17 -62.08,104.61 -22.68,38.42 -41.46,71.85 -41.46,71.85l-14.18 26.59c-20.76,39.02 -22.27,137.78 0.18,216.87 38.93,139.31 88.15,275.36 146.95,406.87 0.05,0.01 -7.29,-28.82 -12.33,-63.51 -4.88,-34.73 -7.33,-75.03 0.25,-98.23 7.27,-23.08 26.59,-79.38 45.61,-128.46 18.82,-49.15 37.33,-91.47 37.28,-91.36 16.6,-39.69 13.78,-129.62 -3.14,-202.23 -30.43,-128.45 -51.57,-259.47 -62.96,-391.64 -0.49,0 -9.32,102.12 -34.12,148.64z"/>
    <path class="fil3" d="M12166.35 10844.64c-7.74,25.33 -24.68,73.06 -38.77,115.53 -14.13,42.33 -25.52,79.05 -25.55,79.04l-8.15 28.91c-12.18,42.64 7,139.04 45.58,211.05 67.38,126.99 143.87,248.67 228.63,364.05 0.1,-0.03 -13.12,-26.44 -25.02,-59.19 -12.07,-32.69 -22.78,-71.58 -20.23,-95.64 2.47,-24.24 9.62,-83.21 17.94,-135.28 8.41,-52.14 17.47,-97.17 17.47,-97.17 7.99,-42.22 -13.62,-129.39 -45.57,-196.31 -56.97,-118.46 -105.11,-241.22 -144.21,-367.09 0.13,0.03 2.87,25.39 4.22,56.98 1.34,31.69 1.24,69.73 -6.34,95.12z"/>
    <path class="fil3" d="M12425.31 11366.9c-2.28,26.3 -8.96,76.66 -13.93,121.1 -5.21,44.43 -8.74,82.53 -8.75,82.6l-2.02 29.97c-1.49,22.1 7.28,55.45 23.06,91.26 15.82,35.62 39.01,73.54 65.13,104.37 92.16,109.16 192.26,211.26 299.42,304.84 -0.02,0.12 -18.38,-22.89 -36.95,-52.03 -18.63,-29.17 -36.97,-64.79 -39.59,-88.76 -2.54,-24.1 -7.8,-83.02 -10.19,-135.42 -2.43,-52.65 -2.79,-98.56 -2.81,-98.45 -0.9,-42.85 -39.93,-122.93 -85.06,-181.54 -80.31,-103.13 -153.34,-212.56 -217.98,-326.82 0,0 8.08,24.21 15.99,54.84 7.96,30.55 15.86,67.67 13.68,94.04z"/>
    <path class="fil3" d="M12787.17 11819.64c3.2,26.21 6.9,76.7 11.21,120.88 4.13,44.38 8.55,82.38 8.56,82.3l4.2 29.74c6.1,43.48 62.58,122.45 127.29,170.89 113.14,85.94 232.81,163.01 357.4,230.42 0,0 -22.79,-18.16 -47.14,-42.46 -24.33,-24.41 -50.06,-54.73 -57.4,-77.65 -7.71,-22.73 -25.02,-79.15 -38.4,-129.55 -13.6,-50.42 -23.46,-95.06 -23.46,-95.06 -9.83,-41.47 -64.85,-110.74 -121.13,-157.67 -99.96,-82.5 -193.85,-172.89 -280.73,-270.09 -0.38,0.31 52.51,86.35 59.6,138.25z"/>
    <path class="fil3" d="M11948.41 9119.84l0.86 -0.61 49.32 -33.96 87.98 -58.65c16.83,-55.28 35.29,-110.08 55.42,-164.23l2.09 -4.82c3.04,-7.1 5.49,-14.46 8.08,-21.64l8.22 -21.51 17.19 -42.86c11.59,-28.41 23.63,-56.66 36.13,-84.72 50.05,-112.15 107.07,-221.14 170.81,-326.04 63.51,-104.89 133.85,-205.52 209.96,-301.41 38.22,-47.9 77.7,-94.72 118.75,-140 19.2,-23.88 38.98,-47.32 58.83,-70.77 20.06,-23.22 40.11,-46.56 60.67,-69.49 -23.4,19.74 -46.39,40.2 -69.02,61.01 -22.48,20.97 -44.86,42.21 -66.56,64.03 -41.39,45.65 -81.1,92.87 -119.69,141.01 -76.67,96.7 -147.55,198.2 -211.65,303.95 -64.21,105.68 -121.68,215.54 -172.05,328.6 -12.17,27.25 -23.84,54.55 -35.13,82.12 7,-67.86 16.2,-159.42 28.53,-245.2 12.15,-85.76 26.87,-165.62 35.59,-208.45 27.79,-47.1 56.71,-93.4 86.93,-138.95 165.36,-249.68 367.12,-474.09 595.36,-664.72 56.46,-47.23 114.59,-92.36 174.09,-135.45l-12.53 -18.44c-59.84,43.43 -118.46,88.89 -175.35,136.42 -229.85,192.05 -433.08,418.2 -599.72,669.7 -30.43,45.88 -59.6,92.51 -87.61,140 -33.35,28.06 -94.76,82.02 -158.47,146.44 -63.59,64.04 -128.91,138.75 -174.13,198.84l2.96 -6.99c12.94,-31.5 26.6,-62.85 40.4,-93.92 56.17,-124.49 119.68,-245.51 190.85,-361.74 70.81,-116.43 149.12,-228.15 233.83,-334.51 42.38,-53.15 86.27,-105.01 131.71,-155.27 21.53,-26.36 43.66,-52.19 65.8,-78.07 22.4,-25.61 44.77,-51.28 67.65,-76.58 -25.84,22.06 -51.06,44.98 -76.01,68.14 -24.77,23.35 -49.4,46.99 -73.49,71.29 -45.83,50.63 -89.99,102.92 -132.71,156.31 -85.3,107.18 -164.11,219.73 -235.47,336.9 -71.53,117.13 -135.62,238.99 -192.11,364.28 -13.99,31.41 -27.74,62.89 -40.78,94.7l-19.34 47.73 -9.35 23.99c-3.19,7.96 -6.67,15.92 -9.34,24.11l-2.67 8.59 -1.69 4.11c-23.44,62.6 -44.8,125.99 -64.33,189.86 10.96,32.01 26.95,72.43 40.56,104.45 13.69,32.1 24.69,56.08 25.05,56.67l0.44 0.99 12.34 28.07c13.2,29.59 19.89,76.3 21.88,130.27 23.69,-48.68 51.4,-86.65 76.78,-105.73l24.14 -17.85z"/>
    <path class="fil3" d="M12133.97 9196.92l6.18 -24.71 13.24 -49.13c8.97,-32.73 18.81,-65.24 29.03,-97.58 40.85,-129.27 90.9,-255.58 149.76,-377.55 58.77,-121.94 126.35,-239.54 201.88,-351.64 37.68,-56.01 77.52,-110.67 119.15,-163.79 19.53,-27.63 39.55,-54.9 60.08,-81.94 20.45,-26.98 41.23,-53.81 62.43,-80.39 -24.29,23.59 -48.12,47.8 -71.31,72.55 -23.35,24.75 -46.04,50.01 -68.25,75.83 -42.08,53.52 -82.16,108.61 -120.23,165.13 -76.11,113.01 -144.15,231.6 -203.42,354.54 -59.42,122.96 -109.86,250.28 -151.09,380.63l-10.61 34.22c-13.96,19.58 -29.42,38.48 -44.15,49.88 -20.98,15.81 -62.27,44.37 -98.24,70.23 -35.82,25.68 -66.28,48.5 -66.38,48.48l-23.35 18.49c-34.6,27.07 -75.75,116.99 -87.62,199.1 -21.46,144.32 -32.86,289.97 -33.79,435.58 0.14,-0.05 5.23,-29.51 15.01,-63.31 9.7,-33.89 24.12,-71.9 40.32,-89.81 16.11,-18.05 56.52,-61.31 93.65,-98.17 37.19,-37.01 70.93,-67.88 70.93,-67.88 31.05,-29.24 65.19,-113.28 79.31,-187.56 8.89,-47.64 18.96,-94.99 30.26,-142.2l1.22 -4.31c2.39,-8.11 4.09,-16.45 5.99,-24.69z"/>
   </g>
   <g>
    <path class="fil3" d="M18099.11 9211.8l13.23 -27.63c-0.03,0.01 17.61,-34.88 36.6,-77.56 19.05,-42.37 39.35,-92.95 47.8,-120.59 6.15,-19.61 7.98,-47.45 7.69,-75.47l-14.01 -45.06c-48.98,-153.87 -108.86,-304.3 -179.2,-449.62 -70.28,-145.31 -151.1,-285.52 -241.29,-418.99 -45.12,-66.77 -92.69,-131.86 -142.34,-195.08 -23.64,-32.61 -47.71,-64.91 -72.42,-96.79 -24.65,-31.89 -49.68,-63.56 -75.21,-94.74 28.7,28.15 56.69,57.23 84.06,86.8 27.52,29.64 54.29,59.91 80.64,90.74 50.03,63.62 97.85,129.11 143.25,196.39 90.85,134.36 172.2,275.53 243.05,421.9 70.81,146.34 131.14,297.85 180.43,452.79 12.27,38.73 23.98,77.61 34.78,116.79 5.61,19.57 10.7,39.17 15.95,58.76l7.57 29.51c2.76,9.82 5.25,19.64 7.38,29.59l1.01 5.32c13.91,57.93 26.43,116.21 37.29,174.71 16.91,89.26 8.45,196.44 -15.13,236.09 -0.01,-0.04 -24.85,42.93 -54.38,89.49 -29.45,46.76 -63.66,96.7 -77.68,116.73 -13.88,20.14 -24.66,60.11 -32.6,94.98 -7.73,34.8 -12.86,64.34 -12.77,64.32 -0.86,-147.34 -12.45,-294.76 -34.15,-440.82 -11.95,-82.6 -8.73,-181.92 10.45,-222.56z"/>
    <path class="fil3" d="M18173.11 9861.23l18.64 -24.21c-0.1,-0.05 24.35,-30.23 51.56,-67.76 27.26,-37.33 57.46,-82.39 71.32,-107.56 14.13,-25.05 23.02,-68.18 28.07,-105.12 4.85,-36.96 5.81,-67.68 5.77,-67.67 19.43,158.77 27.64,319.06 24.33,478.95 -1.49,90.9 -31.87,193.78 -63.22,227.32 0,0 -33.36,36.52 -71.96,75.49 -38.39,39.22 -82.52,80.39 -100.34,96.76 -17.97,16.55 -36.58,53.28 -51.76,85.36 -15,32.01 -25.97,59.86 -26.07,59.85 29.9,-143.66 49.3,-289.84 58.05,-436.71 2.48,-41.63 9.84,-86.31 19.73,-125.14 9.74,-38.85 22.34,-71.92 35.88,-89.56z"/>
    <path class="fil3" d="M18111.79 10510.16l23.29 -19.51c0,0 30.2,-24.16 64.75,-54.74 34.64,-30.48 73.29,-67.68 92.3,-89.22 18.97,-21.39 36.92,-61.46 49.29,-96.49 12.48,-34.98 19.78,-64.76 19.73,-64.75 -13.8,159.26 -39.18,317.34 -75.94,472.5 -10.45,44 -28.29,89.63 -48.47,127.21 -20.25,37.59 -42.55,67.16 -61.39,80.19 0,0 -40.24,28.18 -86.43,57.53 -45.99,29.62 -97.63,59.84 -118.69,71.82 -20.88,12.26 -47.28,43.57 -68.74,71.51 -21.4,27.91 -38.07,52.55 -38.07,52.55 59.55,-133.19 109.4,-270.93 148.85,-411.97 22.51,-79.66 65.46,-168.04 99.52,-196.63z"/>
    <path class="fil3" d="M17915.23 11127.81l26.8 -13.81c0,0 34.74,-16.75 75.12,-38.87 40.21,-21.95 86.25,-49.52 109.18,-66.28 23.17,-16.59 49.03,-51.64 68.67,-83.02 19.61,-31.25 32.94,-58.63 33.03,-58.65 -47.05,151.97 -105.29,300.17 -173.88,442.67 -38.73,81.34 -108.68,160.76 -150.99,177.39 0,0 -45.4,18.47 -96.58,37.04 -51.3,18.65 -108.34,36.79 -131.37,43.89 -23.14,7.2 -55.29,32.1 -82.16,54.6 -26.68,22.63 -48.27,42.78 -48.15,42.87 85.82,-116.66 163.28,-239.95 231.45,-368.53 38.85,-72.49 99.43,-148.95 138.88,-169.3z"/>
    <path class="fil3" d="M17593.77 11685.68l29.32 -7.52c-0.19,-0.12 37.42,-8.78 81.45,-21.6 44.06,-12.56 94.66,-29.31 120.74,-40.59 26.2,-10.98 58.78,-39.34 84.51,-65.54 25.75,-26.13 44.55,-49.74 44.55,-49.74 -77.79,137.34 -165.23,268.35 -261.66,392.35 -54.6,70.75 -139.6,132.96 -184.58,139.97 0,0 -48.37,8.34 -102.39,15.28 -54.1,7.16 -114,12.39 -138.04,14.33 -24.18,1.99 -60.8,19.39 -91.86,35.42 -30.92,16.11 -56.18,31.12 -56.18,31.12 108.45,-94.84 209.8,-198.11 303.08,-308.7 26.51,-31.21 58.62,-61.88 89.44,-86.42 30.62,-24.49 60.3,-42.76 81.62,-48.36z"/>
    <path class="fil3" d="M17163.39 12159.4l30.27 -0.97c0,0 38.62,-0.39 84.49,-3.27 45.91,-2.6 99.08,-8.1 127.03,-13.39 27.8,-5.19 65.98,-25.58 96.46,-45.63 30.6,-19.87 54,-38.77 54,-38.77 -104.62,116.91 -217.92,226 -338.64,325.62 -34.07,28.2 -75.35,53.21 -113.67,70.41 -38.48,17.13 -73.9,26.8 -96.74,25.34 0,0 -49.13,-2.52 -103.68,-7.76 -54.62,-5.08 -114.13,-12.9 -138.25,-16.58 -23.98,-3.28 -63.7,5.25 -97.45,14.1 -33.77,8.8 -61.71,17.86 -61.71,17.86 126.25,-68.26 247.43,-146.29 362.09,-233.19 65.06,-48.79 151.52,-92.18 195.8,-93.77z"/>
    <path class="fil3" d="M17879.58 9686.93c17.35,19.81 52.1,56.33 82.27,89.2 30.11,32.6 55.26,61.32 55.33,61.3l19.24 23.04c14.21,16.95 26.75,49.32 35.35,87.96 8.46,38.61 12.47,83.53 9.99,124.63 -8.59,145.14 -27.79,289.48 -57.24,431.32 0,0 1.05,-29.76 -1.47,-64.88 -2.31,-35.14 -8.7,-75.32 -20.84,-96.26 -12.05,-21.06 -42.44,-71.94 -71.45,-115.83 -28.8,-43.98 -55.59,-81.38 -55.5,-81.4 -24.41,-35.1 -40.67,-124.02 -39.45,-199.13 2.73,-132.84 -4.14,-266.23 -20.28,-398.67 0.07,-0.02 7.76,24.47 19.63,54.18 11.64,29.64 27.37,64.52 44.42,84.54z"/>
    <path class="fil3" d="M17860.25 10276.18c12.69,22.96 39.59,66.17 62.08,104.61 22.68,38.42 41.47,71.85 41.47,71.85l14.18 26.59c20.75,39.02 22.26,137.78 -0.19,216.87 -38.93,139.31 -88.14,275.36 -146.95,406.87 -0.05,0.01 7.29,-28.82 12.33,-63.51 4.88,-34.73 7.33,-75.03 -0.25,-98.23 -7.27,-23.08 -26.59,-79.38 -45.61,-128.46 -18.82,-49.15 -37.33,-91.47 -37.28,-91.36 -16.6,-39.69 -13.78,-129.62 3.14,-202.23 30.43,-128.45 51.57,-259.47 62.96,-391.64 0.49,0 9.32,102.12 34.12,148.64z"/>
    <path class="fil3" d="M17717.99 10844.64c7.74,25.33 24.68,73.06 38.77,115.53 14.13,42.33 25.52,79.05 25.55,79.04l8.15 28.91c12.19,42.64 -7,139.04 -45.58,211.05 -67.38,126.99 -143.87,248.67 -228.63,364.05 -0.1,-0.03 13.12,-26.44 25.02,-59.19 12.07,-32.69 22.78,-71.58 20.24,-95.64 -2.48,-24.24 -9.63,-83.21 -17.95,-135.28 -8.41,-52.14 -17.47,-97.17 -17.47,-97.17 -7.99,-42.22 13.62,-129.39 45.57,-196.31 56.97,-118.46 105.12,-241.22 144.21,-367.09 -0.13,0.03 -2.87,25.39 -4.22,56.98 -1.34,31.69 -1.24,69.73 6.34,95.12z"/>
    <path class="fil3" d="M17459.03 11366.9c2.28,26.3 8.96,76.66 13.93,121.1 5.21,44.43 8.74,82.53 8.75,82.6l2.02 29.97c1.49,22.1 -7.28,55.45 -23.06,91.26 -15.82,35.62 -39.01,73.54 -65.13,104.37 -92.16,109.16 -192.26,211.26 -299.42,304.84 0.02,0.12 18.38,-22.89 36.95,-52.03 18.63,-29.17 36.98,-64.79 39.59,-88.76 2.54,-24.1 7.8,-83.02 10.19,-135.42 2.43,-52.65 2.79,-98.56 2.81,-98.45 0.9,-42.85 39.93,-122.93 85.07,-181.54 80.3,-103.13 153.33,-212.56 217.97,-326.82 0,0 -8.08,24.21 -15.99,54.84 -7.96,30.55 -15.86,67.67 -13.68,94.04z"/>
    <path class="fil3" d="M17097.17 11819.64c-3.2,26.21 -6.9,76.7 -11.21,120.88 -4.13,44.38 -8.55,82.38 -8.56,82.3l-4.2 29.74c-6.1,43.48 -62.58,122.45 -127.29,170.89 -113.14,85.94 -232.81,163.01 -357.4,230.42 0,0 22.79,-18.16 47.14,-42.46 24.33,-24.41 50.06,-54.73 57.4,-77.65 7.71,-22.73 25.02,-79.15 38.41,-129.55 13.59,-50.42 23.45,-95.06 23.45,-95.06 9.83,-41.47 64.85,-110.74 121.13,-157.67 99.96,-82.5 193.85,-172.89 280.73,-270.09 0.38,0.31 -52.51,86.35 -59.6,138.25z"/>
    <path class="fil3" d="M17935.93 9119.84l-0.86 -0.61 -49.32 -33.96 -87.98 -58.65c-16.83,-55.28 -35.29,-110.08 -55.42,-164.23l-2.09 -4.82c-3.04,-7.1 -5.48,-14.46 -8.08,-21.64l-8.22 -21.51 -17.19 -42.86c-11.59,-28.41 -23.63,-56.66 -36.13,-84.72 -50.05,-112.15 -107.07,-221.14 -170.81,-326.04 -63.51,-104.89 -133.85,-205.52 -209.96,-301.41 -38.22,-47.9 -77.7,-94.72 -118.75,-140 -19.19,-23.88 -38.98,-47.32 -58.83,-70.77 -20.06,-23.22 -40.11,-46.56 -60.67,-69.49 23.4,19.74 46.39,40.2 69.02,61.01 22.48,20.97 44.86,42.21 66.56,64.03 41.39,45.65 81.1,92.87 119.69,141.01 76.67,96.7 147.55,198.2 211.65,303.95 64.21,105.68 121.68,215.54 172.05,328.6 12.17,27.25 23.84,54.55 35.13,82.12 -7,-67.86 -16.2,-159.42 -28.53,-245.2 -12.15,-85.76 -26.87,-165.62 -35.58,-208.45 -27.8,-47.1 -56.72,-93.4 -86.94,-138.95 -165.36,-249.68 -367.12,-474.09 -595.36,-664.72 -56.46,-47.23 -114.59,-92.36 -174.09,-135.45l12.53 -18.44c59.84,43.43 118.46,88.89 175.35,136.42 229.85,192.05 433.08,418.2 599.72,669.7 30.43,45.88 59.6,92.51 87.61,140 33.35,28.06 94.76,82.02 158.47,146.44 63.59,64.04 128.91,138.75 174.14,198.84l-2.97 -6.99c-12.94,-31.5 -26.6,-62.85 -40.4,-93.92 -56.17,-124.49 -119.68,-245.51 -190.85,-361.74 -70.81,-116.43 -149.12,-228.15 -233.83,-334.51 -42.38,-53.15 -86.27,-105.01 -131.71,-155.27 -21.53,-26.36 -43.66,-52.19 -65.8,-78.07 -22.4,-25.61 -44.77,-51.28 -67.65,-76.58 25.84,22.06 51.06,44.98 76.01,68.14 24.77,23.35 49.4,46.99 73.49,71.29 45.83,50.63 89.99,102.92 132.71,156.31 85.3,107.18 164.11,219.73 235.47,336.9 71.53,117.13 135.62,238.99 192.11,364.28 13.99,31.41 27.74,62.89 40.78,94.7l19.34 47.73 9.35 23.99c3.19,7.96 6.67,15.92 9.34,24.11l2.67 8.59 1.69 4.11c23.44,62.6 44.8,125.99 64.33,189.86 -10.96,32.01 -26.94,72.43 -40.56,104.45 -13.69,32.1 -24.69,56.08 -25.05,56.67l-0.44 0.99 -12.34 28.07c-13.2,29.59 -19.88,76.3 -21.88,130.27 -23.69,-48.68 -51.4,-86.65 -76.77,-105.73l-24.15 -17.85z"/>
    <path class="fil3" d="M17750.37 9196.92l-6.18 -24.71 -13.24 -49.13c-8.97,-32.73 -18.81,-65.24 -29.03,-97.58 -40.85,-129.27 -90.9,-255.58 -149.75,-377.55 -58.78,-121.94 -126.36,-239.54 -201.89,-351.64 -37.68,-56.01 -77.52,-110.67 -119.15,-163.79 -19.53,-27.63 -39.55,-54.9 -60.08,-81.94 -20.45,-26.98 -41.23,-53.81 -62.42,-80.39 24.28,23.59 48.11,47.8 71.3,72.55 23.35,24.75 46.04,50.01 68.26,75.83 42.07,53.52 82.15,108.61 120.22,165.13 76.11,113.01 144.15,231.6 203.42,354.54 59.42,122.96 109.86,250.28 151.09,380.63l10.61 34.22c13.96,19.58 29.42,38.48 44.16,49.88 20.97,15.81 62.26,44.37 98.23,70.23 35.82,25.68 66.28,48.5 66.38,48.48l23.36 18.49c34.59,27.07 75.75,116.99 87.61,199.1 21.46,144.32 32.86,289.97 33.79,435.58 -0.14,-0.05 -5.23,-29.51 -15.01,-63.31 -9.7,-33.89 -24.12,-71.9 -40.32,-89.81 -16.11,-18.05 -56.52,-61.31 -93.65,-98.17 -37.19,-37.01 -70.93,-67.88 -70.93,-67.88 -31.05,-29.24 -65.19,-113.28 -79.31,-187.56 -8.89,-47.64 -18.96,-94.99 -30.26,-142.2l-1.21 -4.31c-2.4,-8.11 -4.1,-16.45 -6,-24.69z"/>
   </g>
  </g>
  <path class="fil0" d="M12579.33 22306.94c0,34 -11.46,63.45 -35.8,87.3 -24.27,23.8 -53.96,34.95 -87.86,34.95l-268.05 0 0 -523.12 268.05 0c33.88,0 63.27,11.59 87.48,35.34 24.27,23.8 36.18,52.96 36.18,86.92l0 278.61zm2417.76 -1478.87l4950.87 -540.74c294.8,-32.21 596.55,-33.27 892.14,-10.61 194.59,14.92 408.73,39.61 598.5,86.9 180.79,45.07 367.84,120.74 540.3,191.49 165.54,67.91 329.35,140.61 495.21,207.44 103.69,41.78 222.52,86.82 335.18,92.87 201.1,10.79 432.66,-120.24 599.58,-218.14l1833.22 -1075.33c113.64,-66.67 332.47,-195.45 373.44,-333.27 16.25,-54.64 14.51,-121.39 11.34,-177.71 -10.62,-189.61 16.9,-420.99 85.23,-598.93l424.9 -1106.72c30.94,-80.62 62.86,-161.34 90.48,-243.18 35.91,-106.45 61.73,-213.5 84.28,-323.49 31.1,-151.74 -6.36,-372.82 -44.28,-520.63l-299.79 -1168.47c-38.77,-151.12 -170.56,-275.77 -307.17,-342.06l-1664.1 -807.57c-318.21,-154.42 -369.65,-96.53 -678.22,47.06l-443.65 206.48c-362.84,168.86 -751.3,219.07 -1147.39,187.94 -1058.39,-83.18 -2116.68,-178.57 -3174.15,-272.71 -1185.4,-105.54 -2370.53,-214.12 -3555.92,-319.75 -1185.39,105.63 -2370.52,214.21 -3555.92,319.75 -1057.47,94.14 -2115.76,189.53 -3174.15,272.71 -396.09,31.13 -784.55,-19.08 -1147.39,-187.94l-443.65 -206.48c-308.57,-143.59 -360.01,-201.48 -678.22,-47.06l-1664.1 807.57c-136.61,66.29 -268.4,190.94 -307.17,342.06l-299.79 1168.47c-37.92,147.81 -75.38,368.89 -44.28,520.63 22.55,109.99 48.37,217.04 84.28,323.49 27.62,81.84 59.54,162.56 90.48,243.18l424.9 1106.72c68.33,177.94 95.85,409.32 85.23,598.93 -3.17,56.32 -4.91,123.07 11.34,177.71 40.97,137.82 259.8,266.6 373.44,333.27l1833.22 1075.33c166.92,97.9 398.48,228.93 599.58,218.14 112.66,-6.05 231.49,-51.09 335.18,-92.87 165.86,-66.83 329.67,-139.53 495.21,-207.44 172.46,-70.75 359.51,-146.42 540.3,-191.49 189.77,-47.29 403.91,-71.98 598.5,-86.9 295.59,-22.66 597.34,-21.6 892.14,10.61l4950.87 540.74zm0 -6900.29c-1181.3,105.28 -2362.34,213.47 -3543.65,318.66 -1058.25,94.21 -2116.42,189.59 -3175.59,272.82 -420.13,33.02 -832.39,-21.63 -1216.56,-200.43l-443.65 -206.48c-64.69,-30.1 -129.13,-62.85 -194.6,-90.98 -33.93,-14.57 -72.34,-29.71 -109.33,-33.7 -79.3,-8.51 -186.79,43.29 -255.58,76.67l-1664.09 807.56c-99.04,48.06 -205.33,141.8 -233.61,252.02l-299.79 1168.46c-32.43,126.41 -69.11,329.92 -42.76,458.5 21.27,103.74 45.97,206.63 79.85,307.05 27.05,80.15 58.25,158.88 88.56,237.83l424.9 1106.71c75.68,197.16 105.99,445.77 94.18,656.24 -2.1,37.46 -4.96,94.26 5.82,130.56 25.24,84.85 237.47,210.35 310.87,253.39l1833.22 1075.33c138,80.95 357.84,208.16 522.2,199.34 95.08,-5.1 203.17,-47.69 290.91,-83.04 165.74,-66.79 329.09,-139.31 494.41,-207.13 182.07,-74.68 368.08,-150.05 559.34,-197.72 201.71,-50.28 414.31,-74.73 621.37,-90.6 304.86,-23.37 613.64,-22.2 917.73,11.02l4935.85 539.11 4935.85 -539.11c304.09,-33.22 612.87,-34.39 917.73,-11.02 207.06,15.87 419.66,40.32 621.37,90.6 191.26,47.67 377.27,123.04 559.34,197.72 165.32,67.82 328.67,140.34 494.41,207.13 87.74,35.35 195.83,77.94 290.91,83.04 164.36,8.82 384.2,-118.39 522.2,-199.34l1833.22 -1075.33c73.4,-43.04 285.63,-168.54 310.87,-253.39 10.78,-36.3 7.92,-93.1 5.82,-130.56 -11.81,-210.47 18.5,-459.08 94.18,-656.24l424.9 -1106.71c30.31,-78.95 61.51,-157.68 88.56,-237.83 33.88,-100.42 58.58,-203.31 79.85,-307.05 26.35,-128.58 -10.33,-332.09 -42.76,-458.5l-299.79 -1168.46c-28.28,-110.22 -134.57,-203.96 -233.61,-252.02l-1664.09 -807.56c-68.79,-33.38 -176.28,-85.18 -255.58,-76.67 -36.99,3.99 -75.4,19.13 -109.33,33.7 -65.47,28.13 -129.91,60.88 -194.6,90.98l-443.65 206.48c-384.17,178.8 -796.43,233.45 -1216.56,200.43 -1059.17,-83.23 -2117.34,-178.61 -3175.59,-272.82 -1181.31,-105.19 -2362.35,-213.38 -3543.65,-318.66zm-0.02 -7404.42c4078.25,0 7483.57,2879.25 8295.34,6715.76 -35.01,13.38 -71.06,28.11 -108.46,44.13 -793.01,-3794.42 -4156.94,-6644.53 -8186.88,-6644.53 -4029.94,0 -7393.86,2850.11 -8186.88,6644.52 -37.4,-16.02 -73.46,-30.76 -108.46,-44.14 811.77,-3836.5 4217.1,-6715.74 8295.34,-6715.74zm6004.73 14466.54c-1535.19,1539.72 -3658.65,2492.6 -6004.73,2492.6 -2346.08,0 -4469.53,-952.87 -6004.73,-2492.59 48.36,-6.5 97.75,-11.98 147.77,-16.5 1508.9,1480.39 3576.11,2393.73 5856.96,2393.73 2280.85,0 4348.06,-913.34 5856.97,-2393.73 50.02,4.52 99.4,10 147.76,16.49zm-5703.02 -12297.41l-1.86 405.11 -321.34 0 -312.72 -1.17 1.81 -640.52c43.55,-33.66 40.54,-110.55 39.63,-138.86l144.44 0.98 312.1 0 138.29 1.18 -0.35 373.28zm4376.86 10649.43l1339.68 0c20.59,0 37.39,16.89 37.39,37.4l0 0.02c0,20.5 -16.89,37.39 -37.39,37.39l-1339.68 0c-20.5,0 -37.39,-16.81 -37.39,-37.39l0 -0.02c0,-20.59 16.81,-37.4 37.39,-37.4zm-10696.77 0l1339.68 0c20.59,0 37.39,16.85 37.39,37.4l0 0.02c0,20.54 -16.84,37.39 -37.39,37.39l-1339.68 0c-20.54,0 -37.39,-16.81 -37.39,-37.39l0 -0.02c0,-20.59 16.81,-37.4 37.39,-37.4zm-440.51 -448.94c24.73,-28.85 51.1,-13.58 46.72,16.54 -48.79,336.32 -268.48,541.93 -482.21,554.79 -483.24,29.09 -1122.5,-623.31 -1472.76,-911.17 -52.54,-43.18 -105.86,-85.94 -159.11,-126.67 -234.94,114.03 -492.14,157.75 -759.03,96.49 -530.18,-121.7 -814.39,-624.34 -757.49,-1167.67 45.93,-438.47 399.65,-937.72 921.18,-918.77 127.91,4.63 101.16,59.91 8.18,117.87 -661.69,412.41 -646.39,1779.74 78.85,1755.39 96.11,-3.23 186.94,-19.57 272.64,-46.79 -83.48,-50.46 -163.51,-89 -236.46,-108.52 -88.8,-23.75 -166.68,-31.75 -264.11,-33.03 -25.79,-0.35 -40.76,-6.53 -45.06,-13.79 -10.82,-18.2 -3.31,-35.57 22.5,-52.12 101.65,-65.2 236.94,-104.45 357.31,-103.37 150.57,1.33 307.26,76.36 452.37,168.35 475.45,-330.45 732.42,-1026.73 774.41,-1554.84 44.03,-553.96 -226.54,-1264.66 -886.01,-1251.65 -900.2,17.77 -1395.92,1074.32 -1516.31,1843.24 -7.78,49.73 -29.44,71.05 -66.94,71.05 -125.21,0 -248.56,-193.82 -225.05,-312.56 175.08,-884.22 809.83,-1781.63 1787.87,-1781.63 818.57,0 1308.88,710.24 1250.26,1481.56 -43.09,566.9 -400.99,1266.7 -909.1,1650.21 25.77,18.93 50.72,37.41 74.7,54.95 346.21,253.32 933.2,684.09 1239.92,738 149.58,26.3 345.27,6.06 492.73,-165.86zm15411.86 -3077.47c-58.34,150.03 -111.48,316.73 -159.4,500.1 -47.93,183.38 -88.56,366.75 -121.9,550.12 -33.34,183.38 -58.36,356.32 -75.02,518.86 -16.68,162.53 -25,293.82 -25,393.83 0,70.85 6.25,131.29 18.75,181.29 12.5,50.02 43.75,75.02 93.77,75.02 25,0 53.13,-21.88 84.4,-65.64 31.25,-43.76 60.41,-94.81 87.5,-153.16 13.16,-28.34 25.83,-57.43 38.01,-87.25 14.4,-74.23 35.08,-150.4 62.06,-228.51 39.59,-114.61 89.61,-221.92 150.04,-321.94 60.43,-100.03 123.97,-175.03 190.65,-225.05 37.52,-25 84.4,-44.8 140.67,-59.38 56.25,-14.59 113.56,-21.89 171.9,-21.89 58.35,0 114.61,6.25 168.79,18.76 54.17,12.51 97.94,31.26 131.28,56.26 62.5,54.18 89.6,103.15 81.27,146.9 -8.34,43.77 -30.22,78.15 -65.64,103.15 -35.43,25 -71.9,38.55 -109.4,40.64 -37.51,2.08 -54.18,-11.46 -50.01,-40.64 20.83,-91.68 3.13,-138.56 -53.14,-140.65 -56.25,-2.09 -123.99,46.88 -203.17,146.9 -95.85,120.86 -170.87,246.94 -225.05,378.21 -54.18,131.28 -95.94,248.92 -111.98,353.2 -3.6,23.38 -17.2,118.84 30.56,118.84 9.51,0 20.31,-5.99 31.42,-18.82 206.18,-238.2 331.87,-557.17 449.03,-673.56 79.07,-78.56 183.78,-105.64 233.76,-85.31 44.07,17.91 56.17,62.74 25.58,155.61 -85.14,258.51 -105.78,517.8 -26.98,606.39 57.17,64.33 217.37,-259.29 231.3,-300.07 29.18,-85.43 54.18,-167.74 75.02,-246.92 9.83,-39.39 71.12,-30.55 100.02,-21.88 30.44,9.14 78.55,32.84 68.76,71.88 -12.51,75.02 -33.34,152.11 -62.51,231.3 -67.88,184.19 -223.82,450.09 -443.84,450.09 -62.52,0 -114.63,-13.55 -156.29,-40.63 -125.9,-81.85 -140.97,-208.31 -166.36,-347.86 -144.1,244.8 -332.23,417.01 -452.52,388.49 -41.34,-9.79 -83.35,-27.08 -125.02,-56.25 -41.68,-29.18 -70.86,-60.43 -87.52,-93.78l-1.87 -4.2c-77.98,107.03 -183.65,160.55 -316.99,160.55 -108.36,0 -189.63,-42.72 -243.8,-128.15 -25,-39.41 -43.77,-89.71 -56.35,-150.85 -34.51,38.73 -71.99,74.43 -112.44,107.1 -162.53,131.27 -343.82,188.58 -543.87,171.9 -133.35,-12.5 -233.37,-53.13 -300.05,-121.9 -34.92,-36 -63.25,-75.43 -85.03,-118.3 -29.77,40.08 -62.9,77.43 -99.39,112.05 -81.27,77.11 -178.17,130.24 -290.69,159.42 -103.62,26.85 -214.29,20.15 -332.03,-20.13 -55.04,78.35 -150.13,162.56 -220.73,193.94 -247.63,110.02 -500.22,-165.25 -556.37,-400.08 -46.99,-196.47 -32.31,-412.42 -15.62,-612.63 8.32,-45.84 11.45,-79.18 9.37,-100.02 -2.08,-20.83 -17.71,-8.33 -46.89,37.51 -161.08,250.58 -256.48,558.61 -331.32,843.92 -23.38,58.52 -184.4,4.43 -225.05,-12.5 -55.18,-23 -143.49,-73 -181.89,-133.81 -76.3,94.61 -173.2,166.21 -287.37,166.21 -62.52,0 -114.62,-13.55 -156.29,-40.63 -125.89,-81.85 -140.97,-208.31 -166.36,-347.86 -144.09,244.8 -332.23,417.01 -452.51,388.49 -41.35,-9.79 -83.36,-27.08 -125.02,-56.25 -41.68,-29.18 -70.86,-60.43 -87.53,-93.78 -3.15,-6.83 -6.02,-14.08 -8.57,-21.74 -90.81,96.21 -194.23,180.59 -310.29,253.11 -133.36,83.36 -278.19,147.95 -434.46,193.8 -156.29,45.84 -315.7,68.77 -478.22,68.77 -162.55,0 -320.91,-26.06 -475.11,-78.15 -154.19,-52.09 -295.9,-134.4 -425.08,-246.92 -170.88,-154.21 -290.69,-349.04 -359.46,-584.51 -68.76,-235.46 -94.81,-483.44 -78.14,-743.9 16.67,-260.48 72.94,-520.95 168.78,-781.41 95.86,-260.48 226.09,-491.78 390.72,-693.91 164.61,-202.12 361.53,-361.52 590.74,-478.22 229.21,-116.69 483.44,-162.53 762.66,-137.53 275.05,25.01 482.39,106.28 622,243.8 139.61,137.53 226.1,295.89 259.44,475.1 33.34,179.2 19.79,359.46 -40.64,540.74 -60.43,181.29 -151.07,330.28 -271.93,446.97 -120.86,116.7 -264.64,181.29 -431.34,193.79 -166.7,12.5 -341.73,-62.52 -525.11,-225.05 -41.67,-33.34 -52.1,-65.64 -31.26,-96.89 20.84,-31.25 54.18,-30.22 100.02,3.12 150.03,108.36 287.56,151.08 412.6,128.15 125.02,-22.91 230.24,-83.34 315.68,-181.28 85.44,-97.94 146.91,-219.84 184.41,-365.71 37.51,-145.86 44.81,-288.6 21.88,-428.2 -22.91,-139.62 -80.22,-262.57 -171.9,-368.84 -91.69,-106.27 -222.98,-167.74 -393.84,-184.4 -187.53,-16.68 -364.66,25 -531.37,125.02 -166.69,100.02 -315.68,236.5 -446.97,409.45 -131.27,172.96 -240.67,370.91 -328.19,593.89 -87.51,222.96 -146.9,449.04 -178.15,678.26 -31.26,229.21 -30.22,450.1 3.12,662.64 33.34,212.55 106.27,393.83 218.8,543.87 120.86,129.19 243.8,222.96 368.82,281.3 125.03,58.34 249.01,88.56 371.96,90.65 122.94,2.09 243.8,-19.81 362.58,-65.65 118.77,-45.84 231.29,-107.31 337.57,-184.4 106.27,-77.11 204.2,-167.74 293.8,-271.94 49.5,-57.56 96.14,-116.39 139.92,-176.49 13.69,-61.77 31.66,-124.87 53.91,-189.28 39.6,-114.61 89.61,-221.92 150.04,-321.94 60.44,-100.03 123.98,-175.03 190.66,-225.05 37.52,-25 84.4,-44.8 140.66,-59.38 56.26,-14.59 113.57,-21.89 171.91,-21.89 58.34,0 114.61,6.25 168.79,18.76 54.17,12.51 97.93,31.26 131.28,56.26 62.5,54.18 89.59,103.15 81.27,146.9 -8.34,43.77 -30.22,78.15 -65.65,103.15 -35.43,25 -71.89,38.55 -109.4,40.64 -37.5,2.08 -54.18,-11.46 -50,-40.64 20.83,-91.68 3.12,-138.56 -53.14,-140.65 -56.26,-2.09 -123.99,46.88 -203.17,146.9 -95.85,120.86 -170.87,246.94 -225.05,378.21 -54.18,131.28 -95.94,248.92 -111.99,353.2 -3.59,23.38 -17.2,118.84 30.57,118.84 9.51,0 20.31,-5.99 31.41,-18.82 206.19,-238.2 331.88,-557.17 449.03,-673.56 79.08,-78.56 183.79,-105.64 233.76,-85.31 44.07,17.91 56.17,62.74 25.59,155.61 -85.15,258.51 -105.78,517.8 -26.98,606.39 57.16,64.33 217.37,-259.29 231.29,-300.07 13.05,-38.22 25.26,-75.82 36.65,-112.79 29.27,-223.52 76.55,-461.12 126.31,-610.38 22.37,-78.3 182.52,-25.47 231.3,-3.12 80.13,36.73 164.59,89.9 110.24,179.67 -34.12,56.37 -63.38,151.66 -82.12,232.9 -44.68,193.69 -54.8,340.35 -54.8,539.24 103,-297.32 222.39,-802.35 376.75,-1042.46 77.48,-123.97 377.63,6.43 459.47,96.9 39.59,43.75 44.8,90.63 15.62,140.65 -100.02,283.39 -142.73,517.81 -128.14,703.27 24.8,315.26 180.17,513.98 444.84,356.38 -47.37,-20.61 -89.54,-49.39 -126.5,-86.35 -43.76,-43.77 -78.14,-101.08 -103.14,-171.92 -25.02,-75.02 -34.4,-160.45 -28.15,-256.3 6.26,-95.86 22.93,-190.67 50.02,-284.44 27.09,-93.77 64.6,-182.33 112.53,-265.68 47.93,-83.35 98.97,-147.95 153.15,-193.79 45.84,-37.5 97.93,-67.72 156.29,-90.65 58.34,-22.91 115.65,-30.21 171.9,-21.87 56.27,8.34 106.28,36.46 150.03,84.39 43.77,47.93 73.98,123.99 90.65,228.17 12.5,54.19 10.42,96.9 -6.25,128.15 -16.67,31.26 -37.51,53.15 -62.51,65.65 -25.02,12.5 -51.05,15.63 -78.15,9.37 -27.09,-6.25 -46.87,-21.87 -59.39,-46.89 -4.16,-4.16 -6.25,-30.21 -6.25,-78.13 0,-47.93 -4.16,-88.57 -12.5,-121.9 -4.16,-20.84 -15.63,-34.39 -34.38,-40.64 -18.75,-6.25 -44.8,11.46 -78.14,53.14 -37.51,50.01 -72.94,106.27 -106.28,168.78 -33.34,62.52 -60.43,127.11 -81.25,193.79 -20.84,66.69 -33.34,136.49 -37.52,209.43 -4.16,72.93 4.18,144.81 25,215.67 12.52,45.84 38.56,81.25 78.15,106.27 39.59,25 82.3,38.54 128.15,40.63 45.84,2.09 94.81,-7.29 146.91,-28.13 52.09,-20.84 96.88,-54.18 134.4,-100.02 41.68,-50.02 72.93,-92.74 93.77,-128.15 20.84,-35.43 37.51,-69.81 50.01,-103.15 1.44,-3.84 2.85,-7.72 4.24,-11.65 2.42,-40.23 8.3,-81.14 17.65,-122.75 22.91,-102.11 57.3,-194.85 103.15,-278.19 70.84,-120.86 157.31,-220.88 259.42,-300.07 102.11,-79.18 226.09,-118.77 371.95,-118.77 83.36,0 143.79,23.96 181.29,71.89 37.51,47.93 57.31,105.24 59.38,171.92 2.09,66.67 -11.45,135.44 -40.63,206.28 -29.17,70.86 -70.84,132.33 -125.02,184.42 -54.18,52.09 -118.77,86.47 -193.79,103.15 -75.01,16.66 -154.21,2.09 -237.55,-43.76 -25,37.51 -44.81,82.31 -59.38,134.41 -14.59,52.09 -18.77,104.18 -12.52,156.27 6.25,52.09 26.06,97.94 59.4,137.53 33.34,39.59 81.27,61.48 143.77,65.64 95.86,8.34 206.3,-35.43 331.32,-131.27 84.51,-64.8 157.6,-148.64 219.26,-251.51 4.43,-130.34 14.71,-283.02 30.79,-458.03 16.68,-181.27 39.59,-363.6 68.77,-546.97 29.17,-183.38 62.51,-359.46 100.02,-528.24 37.51,-168.79 77.1,-307.36 118.78,-415.72 20.84,-50 55.22,-82.31 103.15,-96.89 47.91,-14.59 94.8,-14.59 140.65,0 45.84,14.58 83.34,38.55 112.52,71.89 29.18,33.34 35.43,70.84 18.75,112.52zm-1012.71 1244.01c-25,-8.34 -56.25,3.13 -93.77,34.38 -37.5,31.27 -71.88,68.77 -103.14,112.52 -31.26,43.77 -56.26,86.49 -75.02,128.15 -18.75,41.68 -19.8,68.77 -3.12,81.27 50,37.52 100.02,42.72 150.03,15.63 50.01,-27.09 90.64,-65.63 121.9,-115.65 31.26,-50 48.96,-101.06 53.14,-153.15 4.16,-52.09 -12.5,-86.48 -50.02,-103.15zm-7956.74 891.63c-25.39,-5.07 -50.78,-16.51 -76.17,-34.28 -19.91,-13.93 -35.14,-28.65 -45.68,-44.15 -7.24,8.7 -14.29,16.51 -20.98,23.2 -39.36,39.35 -86.97,59.03 -142.83,59.03 -63.48,0 -114.26,-24.75 -152.36,-74.27 -38.08,-49.51 -59.67,-114.9 -64.74,-196.15 -43.18,68.55 -83.79,132.04 -121.89,190.44 -38.08,58.41 -81.26,87.6 -129.51,87.6 -83.56,0 -159.96,-143.43 -159.96,-217.11 0,-109.3 31.11,-234.34 72.37,-335.17 32.74,-80.04 90.39,-198.64 163.78,-247.58 80.95,-53.97 177.57,-37.5 266.61,-15.22 86.96,-248.35 256.84,-862.73 -114.26,-927.46 84.36,-86.86 254.55,-68.92 333.28,15.22 78.33,83.75 100.94,199.03 100.94,310.43 0,265.76 -61.86,491.3 -127.6,746.54 -32.8,127.3 -80.54,312.18 -62.85,441.82 12.69,111.74 36.19,151.09 70.47,118.08 18.37,-17.69 41.29,-58.72 68.78,-123.08 0.47,-5.21 1.03,-10.52 1.67,-15.95 7.62,-64.75 23.5,-132.04 47.62,-201.87 24.11,-69.82 54.59,-135.22 91.4,-196.14 36.83,-60.95 75.55,-106.66 116.18,-137.13 22.86,-15.24 51.43,-27.3 85.69,-36.19 34.29,-8.88 69.2,-13.33 104.76,-13.33 35.55,0 69.82,3.82 102.84,11.44 33.01,7.62 59.67,19.04 79.98,34.28 38.09,33.01 54.59,62.83 49.51,89.5 -5.07,26.66 -18.41,47.61 -39.99,62.85 -21.59,15.24 -43.8,23.48 -66.66,24.75 -22.84,1.27 -33,-6.98 -30.46,-24.75 12.69,-55.87 1.89,-84.44 -32.39,-85.7 -34.26,-1.27 -75.53,28.56 -123.78,89.5 -58.4,73.64 -104.11,150.46 -137.12,230.44 -33.01,79.99 -54.6,151.71 -64.75,215.2 -5.07,35.55 -3.8,57.76 3.81,66.66 7.62,8.89 17.78,6.98 30.47,-5.72 10.15,-10.16 23.49,-29.84 40,-59.03 16.49,-29.21 33.64,-62.22 51.41,-99.04 17.78,-36.81 35.55,-74.9 53.32,-114.27 17.79,-39.35 33.01,-73 45.72,-100.93 20.3,-45.71 45.71,-73.64 76.17,-83.79 30.48,-10.16 66.02,-12.69 106.65,-7.62 22.85,5.08 38.73,12.06 47.61,20.95 8.89,8.89 13.96,20.32 15.24,34.28 1.27,13.97 0,27.94 -3.81,41.9 -3.81,13.97 -6.98,28.56 -9.52,43.8 -2.55,10.16 -5.71,26.02 -9.53,47.61 -3.8,21.59 -6.98,45.7 -9.52,72.37 -2.54,26.66 -5.07,53.96 -7.62,81.89 -2.54,27.93 -2.54,52.05 0,72.36 2.55,22.86 8.9,40 19.05,51.43 10.16,11.43 30.48,-1.91 60.94,-39.99 35.55,-43.17 62.21,-90.78 79.98,-142.84 17.77,-52.05 33.01,-102.2 45.71,-150.45 2.54,-10.15 10.16,-15.86 22.86,-17.13 12.69,-1.28 25.39,0 38.08,3.8 12.7,3.82 23.5,9.53 32.37,17.15 8.9,7.62 12.08,16.49 9.53,26.66 -7.62,45.7 -20.31,92.68 -38.08,140.92 -17.79,48.25 -40,92.68 -66.66,133.31 -26.66,40.63 -57.14,74.28 -91.42,100.94 -34.28,26.66 -71.73,39.99 -112.36,39.99 -38.08,0 -69.83,-8.26 -95.22,-24.75 -25.39,-16.51 -45.7,-37.46 -60.94,-62.85 -15.24,-25.39 -27.3,-53.33 -36.18,-83.81 -8.89,-30.46 -15.87,-59.67 -20.95,-87.6 -12.69,20.31 -34.28,50.16 -64.76,89.51 -30.46,39.36 -57.12,73 -79.98,100.94 -12.7,17.77 -29.83,34.92 -51.42,51.41 -21.58,16.51 -42.53,22.23 -62.85,17.15zm-719.87 -99.03c2.54,10.15 13.96,2.53 34.28,-22.86 62.6,-86.08 122.17,-205.39 165.69,-302.8 17.96,-40.2 99.08,-225.9 78.08,-260.91 -56.77,-70.94 -152.74,115.03 -171.39,152.35 -48.93,97.83 -133.7,325.61 -106.66,434.22zm-638.29 -2036.61c-58.34,150.03 -111.49,316.73 -159.4,500.1 -47.93,183.38 -88.56,366.75 -121.9,550.12 -33.34,183.38 -58.36,356.32 -75.02,518.86 -16.68,162.53 -25.01,293.82 -25.01,393.83 0,70.85 6.25,131.29 18.76,181.29 12.5,50.02 43.75,75.02 93.77,75.02 25,0 53.13,-21.88 84.39,-65.64 31.26,-43.76 60.42,-94.81 87.51,-153.16 27.09,-58.34 52.09,-119.82 75.02,-184.41 22.92,-64.6 40.63,-119.82 53.13,-165.66 4.18,-12.5 14.59,-19.8 31.27,-21.89 16.66,-2.07 34.38,0 53.13,6.27 18.75,6.25 34.37,14.57 46.89,25 12.5,10.41 16.66,23.96 12.5,40.63 -66.68,233.38 -139.61,410.5 -218.8,531.36 -79.18,120.86 -189.63,181.28 -331.32,181.28 -108.36,0 -189.63,-42.72 -243.79,-128.15 -15.25,-24.05 -28.19,-52.15 -38.82,-84.29 -80.26,113.68 -187.73,206.19 -317.51,206.19 -62.52,0 -114.62,-13.55 -156.29,-40.63 -125.89,-81.85 -140.97,-208.31 -166.36,-347.86 -144.09,244.8 -332.23,417 -452.51,388.49 -41.35,-9.79 -83.36,-27.08 -125.02,-56.25 -12.46,-8.73 -23.81,-17.65 -34.04,-26.74 -48.25,41.21 -103.47,70.76 -166.69,82.99 -78.56,15.21 -157.56,14.88 -227.65,-7.01 -50.43,84.76 -159,184.71 -237.39,219.56 -247.63,110.02 -500.22,-165.26 -556.37,-400.08 -46.99,-196.48 -32.31,-412.42 -15.62,-612.64 8.32,-45.84 11.45,-79.18 9.37,-100.02 -2.08,-20.82 -17.71,-8.32 -46.89,37.52 -161.07,250.57 -256.48,558.61 -331.32,843.92 -23.38,58.52 -184.4,4.42 -225.05,-12.5 -42.38,-17.67 -104.3,-51.26 -148.15,-93.44 -81.82,79.6 -183.99,130.94 -308.19,130.94 -214.15,0 -329.66,-99.2 -387.21,-243.15 -9.24,14.7 -18.74,29.08 -28.49,43.12 -52.09,75.01 -112.53,133.36 -181.3,175.03 -68.75,41.68 -144.81,50.02 -228.17,25 -100.02,-29.16 -165.65,-95.85 -196.9,-200.03 -31.27,-104.2 -44.81,-204.21 -40.65,-300.07 -33.34,70.85 -76.05,145.87 -128.15,225.05 -52.09,79.18 -96.89,141.7 -134.4,187.54 -16.67,16.67 -32.3,31.26 -46.89,43.76 -14.57,12.5 -32.29,22.92 -53.13,31.25 -37.5,12.5 -76.06,10.43 -115.65,-6.25 -39.59,-16.66 -77.09,-40.63 -112.52,-71.88 -35.43,-31.27 -66.68,-68.77 -93.77,-112.53 -27.09,-43.76 -44.81,-86.48 -53.13,-128.15 -12.5,-66.68 -14.59,-150.04 -6.25,-250.06 8.32,-100.02 21.87,-197.95 40.63,-293.8 18.75,-95.86 37.5,-181.29 56.25,-256.31 18.77,-75.01 30.22,-125.03 34.39,-150.03 8.34,-29.18 33.34,-48.97 75.01,-59.4 41.68,-10.41 84.4,-13.53 128.16,-9.37 43.76,4.18 82.31,13.55 115.65,28.14 33.34,14.58 45.84,32.29 37.5,53.13 -20.83,41.68 -42.71,98.99 -65.64,171.92 -22.91,72.93 -44.79,151.06 -65.63,234.42 -20.84,83.35 -38.55,165.65 -53.14,246.92 -14.58,81.27 -21.88,151.08 -21.88,209.42 0,116.69 18.75,185.46 56.27,206.3 37.5,20.84 79.18,-2.09 125.02,-68.77 12.5,-20.84 28.13,-52.09 46.88,-93.77 18.75,-41.67 39.59,-86.47 62.52,-134.4 22.91,-47.93 44.79,-97.94 65.63,-150.03 20.84,-52.09 37.52,-96.9 50.02,-134.41 12.5,-33.33 20.84,-58.35 25,-75.01 4.16,-16.68 9.38,-36.47 15.63,-59.39 6.25,-22.92 16.68,-58.35 31.25,-106.28 14.59,-47.91 38.56,-119.81 71.9,-215.67 16.67,-54.16 46.87,-86.47 90.64,-96.88 43.76,-10.43 87.52,-7.3 131.28,9.38 43.75,16.66 82.31,41.66 115.65,75 33.34,33.34 47.93,68.77 43.75,106.27 0,20.84 -13.54,80.24 -40.63,178.17 -27.09,97.94 -52.09,203.17 -75.02,315.7 -22.91,112.52 -36.46,214.62 -40.63,306.3 -4.16,91.7 16.68,143.79 62.52,156.29 29.17,8.34 59.38,-7.3 90.63,-46.89 31.27,-39.59 61.49,-90.63 90.65,-153.15 24.57,-52.64 47.65,-107.47 69.26,-164.53 -0.17,-33.46 0.77,-67.29 2.62,-101.15 10.57,-193.17 44.66,-406.31 121.92,-597.01 24.91,-61.51 164.03,-67.5 218.79,-62.5 63.68,5.78 179.35,30.81 150.03,118.77 -60.25,160.7 -106.63,358.76 -131.28,528.24 -15.58,107.1 -65.05,440.62 81.26,471.97 112.6,25.98 193.81,-43.97 254.06,-145.59 16.53,-274.73 81.93,-662.35 152.28,-873.37 22.38,-78.3 182.52,-25.47 231.3,-3.13 80.13,36.73 164.59,89.9 110.24,179.68 -34.12,56.36 -63.38,151.66 -82.11,232.9 -44.68,193.68 -54.81,340.35 -54.81,539.23 103,-297.31 222.39,-802.35 376.75,-1042.45 77.48,-123.98 377.63,6.43 459.47,96.89 39.59,43.76 44.8,90.64 15.63,140.65 -100.03,283.39 -142.74,517.82 -128.15,703.27 25.78,327.66 192.59,529.4 476.56,336.11 -58.13,-27.34 -107.86,-72.36 -142.8,-139.19 -233.51,-446.65 37.34,-1428.54 128.15,-1912.9 -158.36,-33.34 -301.1,-62.52 -428.21,-87.52 -234.61,-46.13 -601.8,-44.83 -803.29,106.28 -20.84,20.83 -36.47,22.92 -46.88,6.25 -55.32,-88.4 -28.55,-157.6 59.38,-212.55 170.23,-106.4 528.61,-89.98 725.16,-71.88 158.36,14.57 337.57,36.46 537.61,65.63 25.15,-75.48 68.44,-212.2 125.03,-268.8 45.89,-45.91 107.13,-50.02 168.77,-50.02 107.19,0 251.68,97.09 190.67,218.8 -19.97,39.81 -40.42,68.27 -59.39,112.52 243.01,28.93 840.29,97.92 999.7,-155.45 45.08,-71.7 40.57,-166.31 -15.02,-250.88 -13.33,-20.28 -3.11,-25 28.13,-12.51 152.53,61.04 244.18,268.73 178.16,425.09 -176.55,418.03 -927.99,277.8 -1253.48,231.3 -147.81,364.89 -348.63,1314.08 -275.06,1709.74 21.4,115 94.77,205.18 204.18,111.86 13.72,-11.7 26.98,-25.87 39.76,-41.95 -4.4,-42.58 -3.18,-92.97 3.67,-151.18 12.5,-106.27 38.54,-216.71 78.14,-331.32 39.59,-114.61 89.6,-221.92 150.04,-321.94 60.43,-100.03 123.97,-175.03 190.65,-225.05 37.52,-25 84.4,-44.81 140.67,-59.38 56.25,-14.59 113.56,-21.89 171.9,-21.89 58.34,0 114.61,6.25 168.79,18.76 54.17,12.51 97.94,31.26 131.28,56.26 62.5,54.18 89.59,103.15 81.27,146.9 -8.34,43.77 -30.22,78.15 -65.65,103.15 -35.43,25 -71.89,38.55 -109.4,40.64 -37.5,2.07 -54.18,-11.46 -50,-40.64 20.83,-91.69 3.13,-138.56 -53.14,-140.65 -56.26,-2.09 -123.99,46.88 -203.17,146.9 -95.85,120.86 -170.87,246.94 -225.05,378.21 -54.18,131.28 -95.94,248.92 -111.98,353.2 -3.6,23.38 -17.21,118.84 30.56,118.84 9.51,0 20.31,-5.99 31.42,-18.82 206.18,-238.2 331.87,-557.17 449.02,-673.56 79.08,-78.56 183.79,-105.64 233.76,-85.31 44.08,17.91 56.18,62.74 25.59,155.61 -85.15,258.51 -105.78,517.8 -26.98,606.39 57.16,64.33 217.37,-259.29 231.29,-300.07 6.58,-19.26 12.94,-38.36 19.1,-57.3 4.37,-131.11 14.68,-284.97 30.91,-461.57 16.68,-181.27 39.59,-363.6 68.77,-546.97 29.16,-183.38 62.5,-359.46 100.02,-528.24 37.5,-168.79 77.1,-307.36 118.77,-415.72 20.84,-50 55.22,-82.31 103.15,-96.89 47.92,-14.59 94.81,-14.59 140.65,0 45.85,14.58 83.35,38.55 112.53,71.89 29.18,33.34 35.43,70.84 18.75,112.52zm-4229.84 973.07c-49.75,3.62 -113.23,-43.55 -121.06,-85.38 -37.35,-199.55 -47.27,-460.38 218.8,-468.85 143.95,-4.57 213.58,89.79 193.78,193.79 -21.23,111.48 -127.07,149.01 -158.4,240.63 -29.19,85.4 -41.79,113.14 -133.12,119.81zm3652.34 -5968.75c-17.8,78.72 -30.84,158.75 -55.65,235.73 -26.27,81.5 -73.6,143.26 -154.71,177.01 -153.86,50.56 -359.01,-46.06 -351.06,-225.43l0.04 -0.86 0.15 -0.85c16,-85.11 82.89,-158.9 172.87,-161.62 53.7,-1.62 103.56,29.31 120.47,81.33 17.77,54.58 -1.23,113.72 -43.94,151.21 -36.67,32.22 -84.14,35.78 -128.48,23.43 4.83,15.66 12.86,28.7 25.87,41.37 77.16,53.47 185.52,47.44 249.6,-24.86 31.63,-35.72 53.13,-89.21 62.94,-135.52 11.77,-55.54 23.37,-111.11 34.75,-166.72 -162.92,-35.61 -292.75,-156.98 -308.83,-328.88 -6.52,-69.62 7.86,-135.69 48.63,-193.09 93.24,-131.31 292.78,-181.12 442.12,-219.68 13.72,-77.93 40.19,-154.5 96,-212.72 41.53,-43.33 138.65,-116.13 198.6,-72.75 90.36,65.33 17.52,230.95 -42.6,294.79 -61.86,65.73 -140.44,105.42 -226.83,127.18l-27.57 122.9c23.05,7.02 45.26,15.52 66.35,27.61 103.6,59.4 142.34,187.77 99.4,297.8 -46.1,118.14 -159.3,165.7 -278.12,162.62zm188.95 -815.01c-7.99,18.25 -14.61,37.36 -16.71,56.98 2.06,-0.28 4.1,-0.59 6.14,-0.93 47.31,-7.78 96.18,-29.36 136.36,-55.35 29.4,-19 69.49,-48.76 70.83,-87.38 1.39,-40.3 -74.22,-23.52 -94.36,-12.73 -41.64,22.3 -78.19,58.79 -102.26,99.41zm-241.06 749.45l76.24 -309.74c-48.78,-2.69 -105.49,11.67 -134.67,52.53 -29.13,40.8 -17.26,99.66 17.87,132.83l1.41 1.35 3.32 6.15 0.83 6.6 -0.98 5.44 -0.41 1.08c-1.23,3.21 -2.72,6.3 -4.46,9.27l-7.01 11.92 -10.9 -8.51c-74.41,-58.07 -111.47,-135.77 -68.28,-226.78l0.41 -0.85 0.53 -0.79c53.34,-78.06 138.77,-115.32 230.92,-113.97l24.84 -98.42c-136.32,26.42 -272.79,65.8 -358.57,184.72 -39.57,72.84 -32.46,163.18 19.23,228.06 53.09,66.66 123.7,100.7 205.43,118.29l4.25 0.82zm133.09 -293.31l-69.51 299.8 18.55 -0.42c58.2,-11.69 87.68,-32.7 122.65,-80.61 45.67,-88.12 11.34,-174.82 -71.69,-218.77zm-56.55 -951.06c52.35,-252.12 104.69,-504.25 157.03,-756.36l2.73 -13.13 57.57 2.5 0.39 14.7c2.09,80.44 35.11,132.89 89.94,189.07 86.53,88.71 170.61,172.12 164.04,305.85l-0.05 1.12 -0.22 1.12c-22.29,114.9 -94.32,202.94 -169.39,288.58l-5.22 5.96 -59.12 -4.72 16.06 -22.63c58.31,-82.22 154.88,-187.12 140.2,-295.68 -15.12,-111.89 -120.64,-191.47 -227.18,-210.23 -30.91,154.95 -61.87,309.88 -92.77,464.82 -9.77,48.92 -17.32,98.31 -29.59,146.7 -16.96,66.96 -65.87,111.35 -123.56,145.07 -91.76,53.64 -380.42,106.63 -376.93,-65.41 3.55,-174.83 313.14,-280.74 456.07,-197.33zm1108.81 829.9l51.89 -338.84 -400.33 223.26c-27.48,154.2 -54.96,308.38 -82.43,462.57 -21.05,118.19 -193.07,228.83 -291.98,124.96 -27.18,-36.34 -22.19,-72.94 -4.95,-113.3 46.06,-76.14 161.75,-126.12 245.17,-83.54l106.4 -586.39 546.26 -321.93 -1.87 12.58c-18.23,122.45 -36.5,244.91 -54.74,367.36 -17.71,118.88 -28.41,239.09 -55.03,357.36l-8.16 21.28c-57.94,103.7 -227.24,183.31 -330.37,95.42 -39.03,-42.1 -29.17,-90.29 -0.91,-136.08 62.31,-74.73 187,-123.28 281.05,-84.71zm609.05 1819.82l192.48 0 192.48 0c80.66,0 146.66,65.99 146.66,146.65l0 192.49 -126.03 40.23 0 -175.43c0,-8.83 -7.21,-16.04 -16.04,-16.04l0 0c-8.83,0 -16.04,7.21 -16.04,16.04l0 185.67 -181.03 57.79 -181.03 -57.79 0 -185.67c0,-8.83 -7.21,-16.04 -16.04,-16.04l0 0c-8.83,0 -16.04,7.21 -16.04,16.04l0 175.43 -126.03 -40.23 0 -192.49c0,-80.66 66,-146.65 146.66,-146.65zm200.49 -372.48c94.29,0 170.72,76.43 170.72,170.71 0,94.29 -76.43,170.72 -170.72,170.72 -94.28,0 -170.71,-76.43 -170.71,-170.72 0,-94.28 76.43,-170.71 170.71,-170.71zm-601.5 -378.37l192.48 0 192.49 0c80.66,0 146.65,66 146.65,146.66l0 192.48 -126.02 40.23 0 -175.43c0,-8.82 -7.22,-16.03 -16.04,-16.03l-0.01 0c-8.82,0 -16.04,7.21 -16.04,16.03l0 185.67 -181.03 57.79 -181.03 -57.79 0 -185.67c0,-8.82 -7.21,-16.03 -16.04,-16.03l0 0c-8.82,0 -16.04,7.21 -16.04,16.03l0 175.43 -126.02 -40.23 0 -192.48c0,-80.66 65.99,-146.66 146.65,-146.66zm200.49 -372.48c94.29,0 170.72,76.43 170.72,170.72 0,94.28 -76.43,170.71 -170.72,170.71 -94.28,0 -170.71,-76.43 -170.71,-170.71 0,-94.29 76.43,-170.72 170.71,-170.72zm601.52 372.48l192.49 0 192.48 0c80.66,0 146.65,66 146.65,146.66l0 192.48 -126.02 40.23 0 -175.43c0,-8.82 -7.22,-16.03 -16.04,-16.03l0 0c-8.83,0 -16.04,7.21 -16.04,16.03l0 185.67 -181.03 57.79 -181.03 -57.79 0 -185.67c0,-8.82 -7.22,-16.03 -16.04,-16.03l-0.01 0c-8.82,0 -16.04,7.21 -16.04,16.03l0 175.43 -126.02 -40.23 0 -192.48c0,-80.66 65.99,-146.66 146.65,-146.66zm200.5 -372.48c94.28,0 170.71,76.43 170.71,170.72 0,94.28 -76.43,170.71 -170.71,170.71 -94.29,0 -170.72,-76.43 -170.72,-170.71 0,-94.29 76.43,-170.72 170.72,-170.72zm1263.7 -2079.51c525.37,0 951.26,425.89 951.26,951.26 0,369.32 -210.48,689.48 -518.01,847.08l-59.33 -60.25c10.56,-2.88 18.84,-5.25 29.37,-16.14 19.37,-20.06 30.19,-40.28 34.1,-67.89 4.38,-30.96 8.84,-46.84 -1.94,-76.2 -6,-16.34 -19.11,-45.45 -35.04,-68.99 107.32,-77.22 191.46,-184.63 239.94,-309.83 16.44,-6.19 30.97,-13.74 38.55,-25.4 14.08,-21.64 7.58,-57.21 -6.99,-81.19 9.54,-45.56 14.57,-92.79 14.57,-141.19 0,-362.74 -281.36,-659.73 -637.74,-684.74 -93.46,-64.61 -220.99,-89.42 -311.08,-75.9 -49.37,7.42 -81.54,8.95 -118.76,29.91 -42.43,17.4 -73.25,41.96 -95.13,69.83 -42.55,54.19 -47,121.59 -41.82,172.7 1.07,10.52 3.14,20.86 6.04,31 -32.9,36.82 -61.88,77.22 -86.31,120.52 -3.44,-8.32 -9.23,-15.48 -14.81,-26.94 -5.92,-12.13 -8.67,-41.01 -22.81,-57.89 -9.9,-11.81 -43.7,-14.39 -51.63,-22.18 -6.75,-6.64 -22.57,-7.81 -41.57,1.16 -19.43,9.18 -42.64,10.79 -62.94,26.88 -3.52,2.76 -6.63,5.72 -9.51,8.8l-38.69 -39.3c159.88,-300.49 476.16,-505.11 840.28,-505.11zm388.07 1819.97c-118.51,53.03 -249.84,82.54 -388.07,82.54 -525.36,0 -951.25,-425.89 -951.25,-951.25 0,-147.18 33.44,-286.54 93.11,-410.92l34.53 35.45c-1.4,3.46 -2.74,6.72 -3.65,7.87 -12.88,15.9 -26.73,21.63 -34.5,32.76 -5.43,7.8 -7.41,30.08 -10.71,42.67 -4.71,17.95 -3.75,39.18 4.03,50.26 2.17,3.06 11.5,8.48 16.85,16.57 6.41,9.62 16.47,23.42 23.88,30.05 12.62,11.29 26.01,18.83 39.6,25.69 22.61,11.41 33.77,10.94 56.57,3.82 0.64,3.8 1.4,7.46 1.76,11.09 0.84,8.29 -6.17,20.76 -5.94,23.24 0.35,3.96 1.09,8.21 3.36,11.49 2.67,3.84 20.31,2.2 21,10.31 -1.45,8.02 -13.69,15.93 -12.71,24.04 0.87,7.22 4.38,14.58 9.65,19.61 5.26,5.03 20.82,5.07 30.44,7.22 -1.64,19.38 -2.49,38.98 -2.49,58.78 0,379.13 307.35,686.47 686.47,686.47 32.43,0 64.32,-2.26 95.55,-6.61 -2.43,7.69 -4.73,15.61 -7.18,22.19 -8.4,22.46 -12.87,46.6 -4.32,61.87 5.24,9.31 20.47,23.36 36.41,40.84 14.78,16.19 26.18,32.94 42.77,43.53 29.1,18.58 62.36,36.84 96.13,29.58 7.43,-1.62 24.25,-10.61 33.22,-20.31 15.94,-17.26 25.1,-40.63 36.14,-49.95l59.35 61.1zm-514 -589.44l-7.75 -7.88c10.03,-5.19 21,-10.49 32.13,-15.8 -6.32,8.51 -13.84,16.23 -24.38,23.68zm236.67 -909.59c300.63,52.45 529.16,314.69 529.16,630.32 0,39.72 -3.64,78.58 -10.57,116.29 -4.96,-0.28 -10.01,-0.03 -14.99,0.73 -35,5.32 -70,-6.19 -98.08,-34.59 -41.35,-41.79 -98.19,-104.77 -126.38,-141.62 -0.63,-12.46 -3.46,-22.65 -13.38,-42.44 -26.95,-57.4 -50.36,-106.07 -72.69,-174.41 -26.61,-81.43 -50.1,-159.23 -92.66,-212.75 -8.72,-65.35 -58.29,-99.71 -100.41,-141.53zm469.76 899.8c-47.42,101.97 -120.92,189.36 -211.91,253.61l-1.12 -0.76c-10.95,-7.15 -43.83,-4.65 -69,2.96 1.31,-8.75 0.47,-18.25 -0.7,-23.23 -2.43,-10.42 -17.26,-15.31 -25.56,-22.06 -14.1,-11.49 -23.13,-14.23 -38.84,-23.42 -7.94,-4.63 -31.68,-7.33 -40.42,-4.49 -15.22,4.92 -17.93,10.74 -31.39,17.63 2.02,-4.01 3.48,-8.29 4.19,-12.67 0.65,-3.91 -4.32,-6.99 -4.63,-10.94 -0.76,-9.84 3.67,-19.95 1.51,-29.58 -2.41,-10.81 -10.88,-19.37 -14.77,-29.75 -5.61,-14.99 -6.48,-33.54 -16.62,-45.91 -8,-9.74 -23.01,-15.35 -35.24,-12.41 -11.33,2.72 -24.8,23.26 -39.99,32.58 -17.44,10.75 -38.67,13.44 -54.59,26.26 -3.91,3.13 -7.69,6.37 -11.41,9.69l-7.42 -7.53c2.93,-5.92 5.94,-11.75 9.41,-16.94 11.16,-16.51 18.7,-34.02 35.87,-44.08 22.35,-13.1 44.45,-15.74 70.32,-16.88 9.66,-0.43 19.46,2.89 29.86,4.34 7.77,1.08 14.24,-2.11 20.62,-1.9 5.13,0.18 8.23,-6.98 7.5,-12.08 -1.51,-10.6 -9.14,-19.52 -11.72,-29.9 -2.21,-8.88 -2.47,-18.3 -4.47,-27.24 -1.58,-6.98 -4.36,-13.83 -8.16,-19.91 -3.7,-5.91 -7.85,-9.2 -10.97,-15.45 -2.43,-4.84 -4.07,-13.44 -4.05,-18.85 0.06,-5.84 3.47,-12.35 -0.36,-16.78 -8.04,-9.3 -21.26,-16.36 -30.91,-12.63 -2.17,0.85 -4.52,3.37 -8.5,4.91 -4.52,1.77 -11,0.92 -17.57,2.48 -18.9,4.52 -43.57,9.79 -61.26,13.98 0.99,-6.45 1.24,-11.81 0.95,-14.81 -0.5,-5.16 1.84,-10.73 -0.01,-15.59 -0.67,-1.72 -1.9,-3.07 -3.36,-4.3 22.38,-19.39 34.74,-8.77 43.01,-8.83 5.1,-4.38 5.28,-16.7 0.98,-18.3 -19.95,-4.49 -39.12,-6.52 -55.86,5.81 -1.93,-5.65 -2.9,-7.63 -6.7,-12.12 -5.6,-6.63 -14.08,-11.32 -22.62,-12.91 -9.56,-1.74 -15.2,-1.85 -24.85,-0.69 -3.29,-4.51 -9.58,-5.91 -13.95,-9.36 -3.73,-2.94 -8.71,-4.11 -13.42,-4.82 -7.89,-1.18 -41.06,-34.24 -85.92,-5.36 -2.2,1.91 -4.35,3.73 -6.49,5.46 3.81,-8.55 6.37,-17.09 6.69,-25.05 1.02,-26.2 -12.01,-26.35 -23.5,-49.92 -6.41,-13.18 -8.76,-32.4 -24.12,-50.71 -10.73,-12.81 -44.58,-23.61 -51.25,-33.66 -3.74,-5.67 -19.18,-1.88 -35.52,4.63 2.21,-4.52 4.35,-11.89 3.54,-14.95 -3.58,-13.33 -11.7,-18.14 -21.95,-26.73 -5.15,-4.3 -13.59,-3.81 -20.06,-2.01 -7.58,2.12 -14.99,4.73 -22.31,7.55 4.38,-3.67 8.66,-7.42 12.78,-11.2 11.7,-10.74 6.73,-31.59 14.82,-45.23 5.93,-10.04 11.42,-6.9 18.12,-16.41 4.27,-6.05 10.59,-15.41 7.07,-21.56 9.46,9.69 19.4,18.41 29.74,25.42 56.46,38.23 112.59,48.86 179.15,63.68 68.03,15.14 143.15,5.8 210.1,25.21 51.62,14.96 94.92,60.19 133.22,85.47 10.74,7.09 27.09,10.94 41.18,10.19 42.64,42.08 99.42,89.62 143.3,165.28 21.48,37.05 -10.42,72.45 0.95,113.74 5.38,19.54 29.88,48.7 49.68,53.03 21.38,4.68 35.24,-2.06 53.35,-14.37 24.4,-16.56 32.41,-36.71 56.28,-54.03 2.79,-2.02 5.9,-3.87 9.28,-5.6zm-595.19 370.22c-11.59,-0.26 -23.11,-0.81 -34.54,-1.68 4.76,-5.61 9.34,-11.43 15.06,-15.95 1.83,-1.43 3.77,-2.82 5.83,-4.2 0.16,1.35 0.42,2.65 0.74,3.87 1.34,4.61 7.07,6.67 9.73,10.67 1.44,2.18 2.3,4.75 3.18,7.29zm-81.13 -6.95c-307.95,-46.24 -544.07,-311.91 -544.07,-632.75l0.02 -2.95 2.75 4.23c7.97,12.26 19.77,8.77 30.22,19 4.71,4.59 8.27,7.82 9.93,14.18 1.33,5 -5.88,18.12 -0.98,19.71 11.05,3.64 25.57,3.93 34.75,-3.19 19.68,-15.25 32.82,-38.8 51.17,-55.7 -4.21,8.93 -8.1,18.04 -11.7,27.14 -5.23,13.18 0.38,28.36 -0.23,42.55 -0.68,15.26 -8.15,31.11 -3.62,45.72 3.17,10.14 14.24,17.19 24.27,20.69 3.96,1.36 8.69,0.94 12.88,-0.7 0.61,9.96 2.98,18.99 7.3,25.12 5.15,7.34 39.97,28.53 54.77,41.77 13.68,12.24 17.63,29.25 32.36,36.69 25.84,13.02 37.89,11.77 65.42,2.86 6.07,-1.98 19.36,-14.97 26.6,-23.35 11.68,-13.56 17.93,-24.44 22.16,-32.99l11.96 12.29c-20.46,30.71 -36.76,63.54 -48.23,98.63 -9.58,29.35 -8.39,88.32 14.81,93.61 20.52,4.7 32.54,3.86 48.81,-9.14 -4.52,8.07 -9.31,15.9 -14.7,20.14 -11.03,8.64 -20.17,11.72 -34.17,12.44 -11.82,0.62 -27.68,-10.13 -38.04,-12.52 -4.44,-1.01 -8.32,15.79 -8.86,20.29 -1.15,9.62 10.95,17.41 12.43,23.78 1.65,7.11 -0.27,13.89 2.37,18.63 3.07,5.47 10.2,13.57 16.59,17.9 8.26,5.57 25.41,23.03 32.06,30.23 7.21,7.8 6.07,24.87 10.87,27.91 3.05,1.96 14.96,4.47 21.75,3.45 7.58,-1.14 17.12,-1.17 25.23,-4.37 15.28,-6.02 34.84,-16.21 46.9,-27.37 13.43,-12.42 12.22,-35.06 22.84,-50.01 5.43,-7.67 14.31,-13.99 23.57,-15.45 29.78,-4.74 60.37,-0.34 87.84,-12.72 1.66,-0.75 3.25,-1.6 4.74,-2.58l2.04 2.1c-8.93,9.8 -17.56,19.9 -26.1,29.98 -4.3,5.09 -18.2,32.08 -19.35,38.64 -9.86,55.83 -6.05,76.11 -9.36,132.71 -0.05,0.87 -0.06,2.03 0,3.4zm-542.27 -681.02l0.07 -0.99 1.24 -0.23 -1.31 1.22zm72.41 -251.05c20.81,-39.24 45.59,-76.07 73.79,-109.93 24.85,45.29 62.78,85.48 95.98,118.84 18.04,25.79 40.99,61.25 67.73,89.33 -7.78,-5.11 -29.37,-4.88 -37.08,-3.38 -20.51,4 -25.85,22.84 -46.7,21.6 -11.47,-0.67 -17.69,-9.69 -26.93,-16.54 -4.89,-3.62 -8.9,-15.67 -14.86,-14.43 -17.5,3.63 -36.52,6.04 -53.57,11.94 21.86,-19.03 45.62,-35.64 57.68,-48.83 12.05,-13.17 13.42,-23.23 10.52,-40.84 -3.26,-19.73 -74.44,-22.62 -99.54,-16.07 -9.16,2.39 -18.16,5.16 -27.02,8.31zm-1489.33 -1633.08c-20.42,7.68 -34.09,21.65 -34.09,37.63 0,9.98 5.33,19.17 14.29,26.54 -26.3,30.19 -15.57,84.89 0.61,141.66 22.59,79.2 -13.99,194.28 37.06,246.26 21.64,18.88 42.57,2.11 52.58,-21.25 20.78,-48.48 8.18,-149.4 13.2,-206.76l9.33 1.23c1.45,8.09 4.95,15.77 6.65,23.77 6.73,15.55 12.77,34.81 29.71,43 9.07,4.24 19.04,0.57 25.67,-6.01 25.83,-28.9 29.35,-68.16 35.37,-105.66 23.65,20.44 60.53,26.79 88.41,13.24 4.47,37.25 19.09,97.74 56.03,116.12 21.2,9.74 50.73,8.67 69.15,-5.49 34.79,-26.34 49.53,-92.7 43.53,-135.49l1.88 -1.57c22.81,4.06 49.37,0.81 68.45,-12.29 7.87,16.76 16.83,34.33 34.35,44.78 15.96,9.9 37.92,8.06 52.55,-2.8 16.44,17.08 37.27,27.87 59.33,33.99 44.63,7.99 86.57,2.88 120.88,-26.75 22.48,-20.16 35.59,-50.43 25.69,-80.31 -3.52,-12.38 -11.19,-23.52 -20.81,-33.03 5.6,-6.28 8.89,-13.91 8.89,-22.16 0,-17.76 -15.25,-32.73 -35.99,-37.18 -0.69,-7.32 -3.36,-14.41 -6.98,-20.34 8.53,-4.76 13.15,-10.64 17.86,-18.94 4.67,-13.24 3.53,-28.53 -5.65,-39.1 -11.03,-12.94 -26.2,-16.6 -41.92,-17.83 -2.35,-9.43 -7.17,-17.43 -11.87,-26.06 -15.51,-23.92 -41.14,-35.94 -69.67,-32.54 -19.96,-23.55 -55.06,-44.94 -84.41,-33.85 -4.22,1.59 -13.78,-5.65 -18.59,-12.29 -41.75,-57.47 -94.04,-85.41 -171.3,-87.45 -73.63,-1.95 -87.32,34.46 -110.89,47.79 -8.34,4.72 -17.82,7.19 -31.27,5.36 -42.28,-5.73 -82.31,26.38 -90.25,71.11 -64.37,-37.12 -148.36,22.02 -149.42,87.85 -0.62,16 3.78,31.37 11.64,44.82zm930.58 867.9c-46.3,61.11 -108.47,113.94 -177.6,138.3l0 -99.59c110.11,-40.69 186,-154.63 193.23,-269.88 5.15,-79.7 -22.78,-157.7 -93.72,-195.62 -29.14,-15.68 -65.18,-20.81 -98.28,-17.42l1.11 -90.58c91,-15.62 178.71,24.26 225.67,102.44 77.85,135 36.78,315.26 -50.41,432.35zm-220.67 -570.15l-8.37 2.2 -258.67 -1.12c26.41,-32.71 33.09,-61.01 36.24,-99.12 8.11,-2.39 17.06,-2.11 24.84,-4.99 16.57,25.96 44.99,44.62 77.49,42.46 8.66,1.45 16.85,-7.46 23.82,0 32.02,23.77 77.44,31.86 115.25,27.67 -0.19,12.5 2.03,27.81 -10.6,32.9zm-524 0.42c15.14,-20.82 22.19,-44.94 28.31,-69.71 13.2,1.93 26.1,5.55 40.36,3.26 7.52,24.84 12.5,47.5 32.59,66.45l-101.26 0zm68.69 763.47c-1.14,6.86 -5.99,13.27 -12.26,17.23l-8.71 3.2 -67.54 0c-6.7,-5.83 -10.36,-12.68 -11.08,-21.05l1.61 -636.1c1.98,-9.76 8.67,-19.88 18.17,-23.74 21.54,-5.76 37.65,-0.72 62.04,-2.4 6.99,0.61 12.67,5.12 17.75,8.98l1.61 4.57 -1.59 649.31zm348.6 -666.69c8.76,0.57 16,7.13 21.33,13.72l-1.65 653.57c-1.55,6.89 -5.24,13.75 -12.15,17.67l-8.77 3.3 -63.64 -0.38c-12.13,-5.86 -18.21,-18.99 -17.8,-32.21l1.68 -365.33 0 -262.83c1.49,-10.79 9.45,-21.11 19.42,-25.71 19.09,-3.92 43.2,-2.03 61.58,-1.8zm-78.15 -28.02c-14.42,2.41 -29.69,14.18 -32.55,29.16l-1.71 202.96 -1.02 457.07 2.07 14.94c4.05,13.23 17.47,24.25 31.09,26.37l81.44 0.76 13.14 -4.34c9.79,-5.55 17.55,-15.64 19.91,-26.06l1.71 -146.56 0.47 -523.64 -3.91 -10.27c-5.95,-11.01 -17.82,-19.63 -30.43,-20.39 -25.59,0.76 -51.43,-1.78 -80.21,0zm-85.13 518.77l-1.07 175.94c-10.83,37.67 -59.72,14.35 -87,21.19 -9.85,-5.86 -14.87,-16.49 -14.87,-27.79l1.82 -631.35c1.03,-9.99 8.25,-19.51 17.48,-24.2l9.42 -2.74c26.15,3.71 55.53,-9.8 74.66,13.9l-0.44 475.05zm14.29 -492.87c-4.42,-12.86 -17.34,-23.49 -30.53,-25.9l-78.93 -1.27c-4.16,1.27 -7.77,1.31 -12.3,2.79 -13.29,5.31 -23.26,18.5 -24.73,32.73l-1.79 641.76 1.13 25.99c3.81,12.76 16.95,26.09 30.5,28.27l77.52 0.23c9.89,0.33 17.96,-3.58 25.28,-9.13 13.65,-10.32 15.13,-29.08 13.85,-44.24l1.73 -639.02 -1.73 -12.21zm-215.06 -26.54l-79.76 -0.63c-5.78,0.91 -11.2,2.59 -16.51,4.95 -9.45,6.16 -17.39,15.64 -18.96,26.14l-2.11 663.18 2.13 11.83c4.99,12.1 16.94,22.5 29.95,24.91l77.81 0.53 15.81 -3.35c11.74,-6.26 19.55,-17.61 22.05,-30.01l1.65 -659.94 -2.77 -14.98c-5.76,-11.34 -16.25,-21.66 -29.29,-22.63zm-1990 13783.41l294.14 0 0 70.06 -294.14 0 0 109.12c0,14.6 4.94,26.87 15.39,37.09 10.49,10.27 22.89,15.23 37.56,15.23l261.9 0 -0.93 70.06 -260.33 0c-34.02,0 -64.08,-10.78 -88.61,-34.54 -24.63,-23.87 -35.81,-53.66 -35.81,-87.72l0 -276.31c0,-34.06 11.18,-63.85 35.81,-87.72 24.53,-23.76 54.59,-34.54 88.61,-34.54l260.41 0 0 70.06 -260.41 0c-14.74,0 -27.24,5.04 -37.86,15.26 -10.54,10.14 -15.73,22.44 -15.73,37.06l0 96.89zm893.89 197c0,32.88 -12.15,60.15 -38.23,80.38 -24.77,19.21 -54.47,26.47 -85.43,26.47l-250.48 0 0 -70.06 250.48 0c26.13,0 52.83,-5.84 52.83,-36.79l0 -90.15c0,-30.95 -26.7,-36.79 -52.83,-36.79l-135.23 0c-31.02,0 -60.66,-7.32 -85.43,-26.59 -26.1,-20.31 -38.22,-47.56 -38.22,-80.51l0 -75.13c0,-32.94 12.13,-60.19 38.21,-80.49 24.78,-19.28 54.42,-26.61 85.44,-26.61l251.25 0 0 70.06 -251.25 0c-26.3,0 -52.82,6 -52.82,37.04l0 75.13c0,31.04 26.52,37.04 52.82,37.04l135.23 0c30.96,0 60.66,7.26 85.43,26.47 26.08,20.23 38.23,47.5 38.23,80.38l0 90.15zm588.29 -15.4c0,34 -11.46,63.45 -35.8,87.3 -24.27,23.8 -53.96,34.95 -87.86,34.95l-268.05 0 0 -523.12 268.05 0c33.88,0 63.27,11.59 87.48,35.34 24.27,23.8 36.18,52.96 36.18,86.92l0 278.61zm267.41 -181.6l294.14 0 0 70.06 -294.14 0 0 109.12c0,14.6 4.94,26.87 15.39,37.09 10.49,10.27 22.89,15.23 37.56,15.23l261.9 0 -0.93 70.06 -260.33 0c-34.02,0 -64.08,-10.78 -88.61,-34.54 -24.63,-23.87 -35.81,-53.66 -35.81,-87.72l0 -276.31c0,-34.06 11.18,-63.85 35.81,-87.72 24.53,-23.76 54.59,-34.54 88.61,-34.54l260.41 0 0 70.06 -260.41 0c-14.74,0 -27.24,5.04 -37.86,15.26 -10.54,10.14 -15.73,22.44 -15.73,37.06l0 96.89zm1017.2 106.74l-293.15 0 0 -70.83 293.15 0 0 70.83zm480.11 124.76l304.07 0 0 70.06 -374.9 0 0 -176.37c0,-33.97 11.97,-63.08 36.31,-86.82 24.27,-23.66 53.73,-35.31 87.6,-35.31l132.55 0c14.51,0 26.85,-4.81 37.16,-15.06 10.31,-10.27 15.35,-22.68 15.8,-37.01l0 -46.77c0.42,-14.48 -3.35,-27.81 -14.13,-37.85 -10.97,-10.22 -24.66,-14.05 -39.46,-14.05l-252.78 0 0 -70.06 252.78 0c34.01,0 64.05,10.82 88.59,34.54 24.64,23.81 35.83,53.56 35.83,87.59l0 46.6c0,34.03 -11.19,63.78 -35.83,87.59 -24.54,23.72 -54.58,34.54 -88.59,34.54l-132.18 0c-14.56,0 -26.69,5.41 -37.04,15.6 -10.36,10.18 -15.78,22.16 -15.78,36.72l0 106.06zm868.68 -76.52c0,40.23 -14.34,74.66 -43.06,102.84 -28.87,28.34 -63.86,42.21 -104.28,42.21l-95.5 0c-40.43,0 -75.41,-13.86 -104.29,-42.21 -28.72,-28.18 -43.05,-62.62 -43.05,-102.84l0 -227.67c0,-40.17 14.8,-74.34 43.44,-102.46 28.8,-28.28 63.53,-42.59 103.9,-42.59l95.5 0c64.34,0 108.73,31.49 134.61,89.9 7.71,17.41 12.73,36.01 12.73,55.15l0 227.67zm267.41 76.52l304.07 0 0 70.06 -374.9 0 0 -176.37c0,-33.97 11.97,-63.08 36.31,-86.82 24.27,-23.66 53.73,-35.31 87.6,-35.31l132.55 0c14.51,0 26.85,-4.81 37.16,-15.06 10.31,-10.27 15.35,-22.68 15.8,-37.01l0 -46.77c0.42,-14.48 -3.35,-27.81 -14.13,-37.85 -10.97,-10.22 -24.66,-14.05 -39.46,-14.05l-252.78 0 0 -70.06 252.78 0c34.01,0 64.05,10.82 88.59,34.54 24.64,23.81 35.83,53.56 35.83,87.59l0 46.6c0,34.03 -11.19,63.78 -35.83,87.59 -24.54,23.72 -54.58,34.54 -88.59,34.54l-132.18 0c-14.56,0 -26.69,5.41 -37.04,15.6 -10.36,10.18 -15.78,22.16 -15.78,36.72l0 106.06zm576.83 70.06l-70.83 0 0 -520.83 70.83 0 0 520.83zm-5548.11 -450.77l0 383 197.22 0c14.58,0 27.01,-4.9 37.45,-15.1 10.4,-10.17 15.38,-22.56 15.38,-37.09l0 -278.61c0,-14.53 -4.98,-26.92 -15.38,-37.1 -10.44,-10.2 -22.87,-15.1 -37.45,-15.1l-197.22 0zm1749.59 0l0 383 197.22 0c14.58,0 27.01,-4.9 37.45,-15.1 10.4,-10.17 15.38,-22.56 15.38,-37.09l0 -278.61c0,-14.53 -4.98,-26.92 -15.38,-37.1 -10.44,-10.2 -22.87,-15.1 -37.45,-15.1l-197.22 0zm2883.45 304.19l0 -227.67c0,-8.7 -3.95,-19.13 -7.49,-26.95 -3.84,-8.5 -9.05,-18.31 -15.7,-24.97 -6.61,-6.61 -16.6,-11.81 -25.07,-15.57 -8.32,-3.69 -18.77,-7.5 -28,-7.5l-96.01 0c-9.22,0 -19.68,3.81 -27.99,7.5 -8.47,3.76 -18.46,8.96 -25.07,15.57 -6.65,6.66 -11.86,16.47 -15.7,24.97 -3.54,7.82 -7.49,18.25 -7.49,26.95l0 227.67c0,9.05 3.72,19.18 7.47,27.28 3.89,8.44 9.1,18.02 15.72,24.64 6.61,6.61 16.6,11.81 25.07,15.57 8.31,3.69 18.77,7.5 27.99,7.5l96.01 0c9.23,0 19.68,-3.81 28,-7.5 8.47,-3.76 18.46,-8.96 25.07,-15.57 6.62,-6.62 11.83,-16.2 15.72,-24.64 3.75,-8.1 7.47,-18.23 7.47,-27.28z"/>
  <path class="fil4" d="M14997.09 21320.51l-5004.02 -546.55c-387.37,-42.3 -936.93,-30.59 -1319.09,64.66 -156.33,38.97 -323.67,108.17 -472.9,169.39 -166.49,68.3 -331.22,141.37 -498.05,208.6 -553.85,223.18 -849.99,145.24 -1365.41,-157.09l-1833.22 -1075.33c-414,-242.84 -653.84,-461.15 -625.86,-960.6 6.69,-119.62 -10.24,-283.5 -53.47,-396.1l-424.89 -1106.71c-86.79,-226.06 -148.08,-403.61 -197.31,-643.82 -47.49,-231.65 -8.52,-513.87 49.66,-740.61l299.79 -1168.46c75.03,-292.44 299.86,-530.88 567.62,-660.82l1664.1 -807.56c469.33,-227.77 655.03,-162.74 1098.5,43.66l443.65 206.47c285.46,132.87 591.26,168.19 902.48,143.74 2248.51,-176.71 4496.6,-393.54 6743.39,-593.68l25.03 -2.23 25.03 2.23c2246.79,200.14 4494.88,416.97 6743.39,593.68 311.22,24.45 617.02,-10.87 902.48,-143.74l443.65 -206.47c443.47,-206.4 629.17,-271.43 1098.5,-43.66l1664.1 807.56c267.76,129.94 492.59,368.38 567.62,660.82l299.79 1168.46c58.18,226.74 97.15,508.96 49.66,740.61 -49.23,240.21 -110.52,417.76 -197.31,643.82l-424.89 1106.71c-43.23,112.6 -60.16,276.48 -53.47,396.1 27.98,499.45 -211.86,717.76 -625.86,960.6l-1833.22 1075.33c-515.42,302.33 -811.56,380.27 -1365.41,157.09 -166.83,-67.23 -331.56,-140.3 -498.05,-208.6 -149.23,-61.22 -316.57,-130.42 -472.9,-169.39 -382.16,-95.25 -931.72,-106.96 -1319.09,-64.66l-5004.02 546.55zm-3886.51 -1917.96c27.32,27.03 41.02,60.66 41.02,100.07l0 59.76c0,39.71 -13.97,73.88 -42.36,101.72 -28.29,27.76 -62.72,41.34 -102.31,41.34l-310.35 0 0 -605.78 310.35 0c39.59,0 74.02,13.58 102.31,41.33 28.38,27.84 42.36,62.01 42.36,101.73l0 59.75c0,39.41 -13.7,73.04 -41.02,100.08zm498.54 78.49l-175.84 0 -72.47 221.77 -83.04 0 196.53 -601.41 88.45 0 205.61 601.41 -83.42 0 -75.82 -221.77zm431.69 -35.07l0 256.84 -86.86 0 0 -603.15 311.52 0c39.71,0 74.27,13.55 102.74,41.32 28.51,27.79 42.51,61.96 42.51,101.74l0 59.75c0,39.54 -14.42,72.96 -41.81,100.01 27.69,26.91 41.81,60.5 41.81,100.14l0 200.19 -86.85 0 0 -199.9c0,-15.99 -5.6,-29.27 -17.18,-40.33 -11.67,-11.18 -25.37,-16.61 -41.53,-16.61l-224.35 0zm920.75 -94.74l337.47 0 0 85.97 -337.47 0 0 122.4c0,16 5.35,29.36 16.8,40.54 11.53,11.29 25.04,16.7 41.15,16.7l303.32 0 -1.13 85.97 -301.45 0c-39.76,0 -74.94,-12.67 -103.59,-40.42 -28.82,-27.92 -41.96,-62.8 -41.96,-102.65l0 -317.02c0,-39.86 13.14,-74.72 41.96,-102.65 28.64,-27.76 63.84,-40.41 103.59,-40.41l301.57 0 0 85.97 -301.57 0c-16.2,0 -29.83,5.5 -41.5,16.73 -11.55,11.11 -17.19,24.48 -17.19,40.51l0 108.36zm911.98 94.74l0 259.47 -86.86 0 0 -605.78 310.35 0c39.66,0 73.98,13.69 102.31,41.47 28.35,27.81 42.36,62.06 42.36,101.74l0 59.89c0,39.67 -14.01,73.93 -42.36,101.74 -28.33,27.78 -62.65,41.47 -102.31,41.47l-223.49 0zm644.46 -94.74l337.47 0 0 85.97 -337.47 0 0 122.4c0,16 5.35,29.36 16.8,40.54 11.53,11.29 25.04,16.7 41.15,16.7l303.32 0 -1.13 85.97 -301.45 0c-39.76,0 -74.94,-12.67 -103.59,-40.42 -28.82,-27.92 -41.96,-62.8 -41.96,-102.65l0 -317.02c0,-39.86 13.14,-74.72 41.96,-102.65 28.64,-27.76 63.84,-40.41 103.59,-40.41l301.57 0 0 85.97 -301.57 0c-16.2,0 -29.83,5.5 -41.5,16.73 -11.55,11.11 -17.19,24.48 -17.19,40.51l0 108.36zm818.02 -165.6l0 517.18 -86.86 0 0 -517.18 -180.58 0 0 -85.97 447.12 0 0 85.97 -179.68 0zm455.99 517.18l-86.85 0 0 -603.15 86.85 0 0 603.15zm633.94 -122.76c0,38.6 -14.33,70.69 -44.95,94.42 -28.91,22.43 -63.58,30.97 -99.73,30.97l-290.18 0 0 -85.98 290.18 0c28.27,0 57.82,-5.71 57.82,-39.41l0 -103.44c0,-33.7 -29.55,-39.41 -57.82,-39.41l-155.14 0c-36.22,0 -70.82,-8.6 -99.75,-31.11 -30.61,-23.82 -44.93,-55.9 -44.93,-94.56l0 -86.2c0,-38.66 14.32,-70.74 44.93,-94.56 28.93,-22.51 63.53,-31.11 99.75,-31.11l291.05 0 0 85.97 -291.05 0c-28.46,0 -57.82,5.89 -57.82,39.7l0 86.2c0,33.81 29.36,39.7 57.82,39.7l155.14 0c36.15,0 70.82,8.53 99.73,30.96 30.62,23.73 44.95,55.83 44.95,94.42l0 103.44zm637.58 36.79l-1.14 85.97 -301.45 0c-39.75,0 -74.93,-12.67 -103.59,-40.42 -28.81,-27.92 -41.95,-62.8 -41.95,-102.65l0 -317.02c0,-39.86 13.14,-74.72 41.95,-102.65 28.64,-27.76 63.85,-40.41 103.59,-40.41l301.58 0 0 85.97 -301.58 0c-16.15,0 -29.84,5.44 -41.51,16.61 -11.57,11.06 -17.17,24.49 -17.17,40.48l0 317.02c0,15.91 5.35,29.42 16.78,40.54 11.54,11.22 25.1,16.56 41.17,16.56l303.32 0zm483.68 -135.8l-175.84 0 -72.46 221.77 -83.05 0 196.54 -601.41 88.44 0 205.61 601.41 -83.42 0 -75.82 -221.77zm431.69 -35.07l0 256.84 -86.86 0 0 -603.15 311.52 0c39.72,0 74.27,13.55 102.75,41.32 28.5,27.79 42.51,61.96 42.51,101.74l0 59.75c0,39.54 -14.43,72.96 -41.82,100.01 27.7,26.91 41.82,60.5 41.82,100.14l0 200.19 -86.86 0 0 -199.9c0,-15.99 -5.6,-29.27 -17.18,-40.33 -11.67,-11.18 -25.37,-16.61 -41.52,-16.61l-224.36 0zm646.21 256.84l-86.86 0 0 -603.15 86.86 0 0 603.15zm517.12 -221.77l-175.84 0 -72.46 221.77 -83.05 0 196.54 -601.41 88.44 0 205.61 601.41 -83.42 0 -75.82 -221.77zm-8358.79 -295.41l0 174.37 223.49 0c16.05,0 29.53,-5.4 40.98,-16.65 11.38,-11.19 16.83,-24.65 16.83,-40.59l0 -59.89c0,-16.02 -5.39,-29.35 -16.83,-40.59 -11.45,-11.26 -24.93,-16.65 -40.98,-16.65l-223.49 0zm0 260.34l0 173.49 223.49 0c15.99,0 29.55,-5.34 41.01,-16.52 11.4,-11.16 16.8,-24.49 16.8,-40.42l0 -59.61c0,-15.93 -5.4,-29.26 -16.8,-40.42 -11.46,-11.18 -25.02,-16.52 -41.01,-16.52l-223.49 0zm795.91 -50.92l-60.01 -162.33 -57.62 162.33 117.63 0zm461.46 -209.42l0 174.37 224.8 0c16.13,0 29.76,-5.38 41.3,-16.67 11.42,-11.18 16.96,-24.58 16.96,-40.57l0 -59.89c0,-16.07 -5.48,-29.33 -16.96,-40.58 -11.54,-11.28 -25.17,-16.66 -41.3,-16.66l-224.8 0zm1832.73 0l0 174.37 223.49 0c16.05,0 29.53,-5.4 40.98,-16.65 11.39,-11.19 16.83,-24.65 16.83,-40.59l0 -59.89c0,-16.02 -5.39,-29.35 -16.83,-40.59 -11.45,-11.26 -24.93,-16.65 -40.98,-16.65l-223.49 0zm3643.9 209.42l-60 -162.33 -57.63 162.33 117.63 0zm461.46 -209.42l0 174.37 224.8 0c16.14,0 29.76,-5.38 41.3,-16.67 11.43,-11.18 16.96,-24.58 16.96,-40.57l0 -59.89c0,-16.07 -5.48,-29.33 -16.96,-40.58 -11.54,-11.28 -25.16,-16.66 -41.3,-16.66l-224.8 0zm1133.56 209.42l-60 -162.33 -57.63 162.33 117.63 0zm-2404.04 -11155.08l0.01 0.01c22.8,22.8 22.79,60.06 0,82.85l-1645.69 1645.69 1645.7 1645.7c22.79,22.8 22.79,60.07 0,82.86l-0.01 0.01c-22.79,22.79 -60.05,22.78 -82.85,0l-1645.7 -1645.7 -1645.7 1645.7c-22.8,22.78 -60.05,22.79 -82.86,0l-0.01 -0.01c-22.78,-22.79 -22.78,-60.06 0,-82.86l1645.7 -1645.7 -1645.69 -1645.69c-22.77,-22.79 -22.79,-60.05 0,-82.85l0.03 -0.01c22.78,-22.79 60.04,-22.79 82.84,0l1645.69 1645.69 1645.69 -1645.69c22.79,-22.79 60.07,-22.79 82.85,0zm-1711.35 -2244.15c4340.68,0 7963.86,3070.6 8816.76,7158.07 -92.92,-10.36 -181.23,-5.97 -271.99,11.29 -844.19,-3943.87 -4348.85,-6901.22 -8544.77,-6901.22 -4195.92,0 -7700.57,2957.34 -8544.76,6901.21 -90.76,-17.25 -179.09,-21.63 -272.01,-11.27 852.9,-4087.47 4476.09,-7158.08 8816.77,-7158.08zm6586.04 15150.5c-1644.08,1761.79 -3986.19,2863.72 -6586.04,2863.72 -2599.84,0 -4941.95,-1101.94 -6586.03,-2863.71 90.97,-36.46 183.97,-71.26 276.88,-96.91 1590.6,1659.25 3829.15,2692.48 6309.15,2692.48 2480.01,0 4718.56,-1033.22 6309.16,-2692.48 92.92,25.65 185.91,60.44 276.88,96.9zm-6586.02 -109.59l-4973.39 -543.2c-608.13,-66.42 -1195.9,16.03 -1417.95,71.37 -277.86,69.27 -743.18,283.26 -1008.16,390.05 -390.55,157.37 -591.13,169.85 -1117.23,-138.76l-1833.22 -1075.33c-444.45,-260.71 -502.94,-415.84 -486.94,-701.49 6.04,-107.87 -2.33,-332.1 -71.76,-512.99l-424.9 -1106.72c-86.05,-224.17 -128.87,-328.82 -184.32,-599.36 -30.42,-148.39 -15.52,-371.89 46.56,-613.84l299.79 -1168.46c48.62,-189.51 201.04,-372.07 417.53,-477.13l1664.09 -807.56c389.36,-188.96 498.03,-121.11 856.31,45.62l443.65 206.47c391.84,182.36 775.68,190.26 1043.62,169.21 1640.42,-128.92 5601.06,-491.9 6746.32,-593.91 1145.26,102.01 5105.9,464.99 6746.32,593.91 267.94,21.05 651.78,13.15 1043.62,-169.21l443.65 -206.47c358.28,-166.73 466.95,-234.58 856.31,-45.62l1664.09 807.56c216.49,105.06 368.91,287.62 417.53,477.13l299.79 1168.46c62.08,241.95 76.98,465.45 46.56,613.84 -55.45,270.54 -98.27,375.19 -184.32,599.36l-424.9 1106.72c-69.43,180.89 -77.8,405.12 -71.76,512.99 16,285.65 -42.49,440.78 -486.94,701.49l-1833.22 1075.33c-526.1,308.61 -726.68,296.13 -1117.23,138.76 -264.98,-106.79 -730.3,-320.78 -1008.16,-390.05 -222.05,-55.34 -809.82,-137.79 -1417.95,-71.37l-4973.39 543.2z"/>
 </g>
</svg>
